{
    "prepare_queue": {
        "installed": [],
        "uninstalled": []
    },
    "config_munge": {
        "files": {}
    },
    "installed_plugins": {
        "cordova-plugin-whitelist": {
            "PACKAGE_NAME": "com.theCommitteeGrp.fireTv"
        },
        "cordova-plugin-device": {
            "PACKAGE_NAME": "com.theCommitteeGrp.fireTv"
        },
        "cordova-plugin-network-information": {
            "PACKAGE_NAME": "com.theCommitteeGrp.fireTv"
        },
        "cordova-plugin-sqlite": {
            "PACKAGE_NAME": "com.theCommitteeGrp.fireTv"
        },
        "cordova-sqlite-storage": {
            "PACKAGE_NAME": "com.theCommitteeGrp.fireTv"
        },
        "com.bunkerpalace.cordova.YoutubeVideoPlayer": {
            "PACKAGE_NAME": "com.aeom.fireTv"
        }
    },
    "dependent_plugins": {}
}