<?xml version="1.0" encoding="utf-8"?>
<!-- Generator: Adobe Illustrator 15.0.0, SVG Export Plug-In . SVG Version: 6.00 Build 0)  -->
<!DOCTYPE svg PUBLIC "-//W3C//DTD SVG 1.1//EN" "http://www.w3.org/Graphics/SVG/1.1/DTD/svg11.dtd">
<svg version="1.1" id="Layer_1" xmlns="http://www.w3.org/2000/svg" xmlns:xlink="http://www.w3.org/1999/xlink" x="0px" y="0px"
	 width="792px" height="792px" viewBox="0 0 792 792" enable-background="new 0 0 792 792" xml:space="preserve">
<g id="Original" display="none">
</g>
<g id="Layer_4">
</g>
<g id="Layer_3">
</g>
<g id="Layer_8">
</g>
<g id="Layer_9">
</g>
<g id="Layer_7">
</g>
<g id="Layer_6">
</g>
<g id="Layer_1_2_">
	<g>
		<path fill="#FFFFFF" stroke="#000000" stroke-miterlimit="10" d="M758.58,396l-62.897-62.897c-0.408-1.395-0.894-2.74-1.432-3.785
			c0,0-1.655-3.448-3.126-4.026c-0.7-0.275-2.021-0.163-3.224,0.031l-6.18-6.179c1.805-10.209,1.703-30.79-4.119-36.299
			c-0.803-0.758-2.797,1.083-4.678,3.235c0.445-3.825,0.608-7.558,0.486-11.229c-0.537-16.186-10.522-35.063-14.617-35.061
			c-1.052,0.001-1.891,0.986-2.559,2.422c-1.498-4.516-7.935-16.268-9.781-16.572c-1.655-0.274-5.414,3.411-6.822,4.864
			c-3.975-11.071-11.797-26.893-15.489-26.893c-1.166,0-2.438,1.973-3.453,3.795c-4.346-13.839-18.278-28.899-20.889-28.327
			c-0.672,0.147-1.255,0.874-1.752,1.872c-3.587-8.856-10.255-17.79-16.425-22.099c-3.329-2.325-8.468-5.303-12.692-6.69
			c-2.447-3.081-16.698-20.743-20.308-19.037c-1.202,0.568-1.32,4.346-1.083,8.337c-6.639-7.134-15.571-12.605-25.684-15.337
			l-13.669-3.791c-0.609-0.372-1.218-0.745-1.845-1.101c-0.471-0.268-0.956-0.507-1.442-0.742c0,0-12.853-6.689-16.391-4.086
			c-5.031-4.079-10.954-6.188-16.424-7.854l-1.375-0.418L396,33.42l-78.663,78.663c-0.192,0.074-0.396,0.154-0.587,0.228
			c-1.947,0.749-3.786,1.455-5.646,2.22c-2.828,1.161-5.396,2.713-7.691,4.632c-7.166-2.011-20.484,0.253-29.047,8.295l-6.545,2.126
			c-9.313,3.025-17.428,8.243-23.856,14.891c0.001-3.162-0.325-6.184-1.547-6.501c-3.083-0.805-9.073,5.184-11.394,7.725
			c-1.344,1.472-2.623,2.994-3.873,4.541c-4.778,3.201-15.125,10.651-15.125,10.651c-7.313,5.861-12.859,13.018-16.426,20.691
			c-0.293-0.427-0.649-0.75-1.1-0.893c-2.766-0.877-16.73,9.892-21.968,23.089c-0.515-1.322-1.153-2.419-1.907-2.652
			c-2-0.616-15.375,15.063-18.219,28.729c-0.03,0.146-0.064,0.286-0.096,0.43c-1.235-1.758-3.021-3.777-4.686-3.722
			c-2.928,0.098-6.484,6.812-6.484,6.812c-1.916,3.354-3.38,6.769-4.416,10.276h-0.002c-5.091-1.041-11.387,9.594-11.387,9.594
			c-7.633,12.854-7.717,25.841-5.88,36.881c-2.556-2.811-6.188-6.219-8.073-5.253c-3.548,1.818-1.646,24.599-0.388,33.554
			l-6.19,6.19c-1.972-0.222-4.229-0.351-4.947,0.106c-0.979,0.625-1.731,4.741-2.065,6.906L33.42,396l62.264,62.264l1.478,4.105
			c2.588,7.188,5.587,13.297,9.151,18.584l-3.504-0.764l2.933,11.221c0.057,0.221,0.102,0.41,0.143,0.582
			c0.122,0.514,0.273,1.15,0.55,1.883c1.862,4.912,4.275,9.412,7.147,13.418l-7.531-1.992l6.761,13.939
			c0.125,0.256,0.227,0.479,0.317,0.678c0.253,0.551,0.542,1.174,0.965,1.861c3.45,5.594,8.283,9.867,14.364,12.707
			c0.118,0.055,0.234,0.104,0.354,0.158l-10.838-1.283l6.629,12.088c2.123,3.871,4.797,6.867,8.18,9.162
			c3.8,2.578,8.107,5.502,12.806,7.945c1.042,0.541,2.097,1.045,3.147,1.559l-6.707-0.939l0.871,8.988
			c0.017,0.16,0.021,0.264,0.026,0.332c0.157,2.553,1.378,4.158,2.343,5.025l0.147,0.137c0.344,0.32,0.864,0.805,1.567,1.297
			c8.117,5.631,16.189,10.076,24.446,13.49c-0.243,0.074-0.474,0.15-0.676,0.219c-0.198,0.064-0.414,0.139-0.658,0.209
			l-15.098,4.424l20.409,12.908c1.464,0.924,3.014,1.688,4.638,2.295l3.844-1.59c0.155-0.064,0.298-0.131,0.435-0.195
			c0.57-0.258,1.349-0.615,2.341-0.875c7.317-1.916,14.269-3.031,21.106-3.404c-3.805-0.496-7.611-0.98-11.423-1.43
			c-2.306-0.271-4.655-0.174-6.985-0.23c-3.609-0.088-6.998-0.943-10.077-2.889c-2.259-1.426-4.517-2.857-7.144-4.52
			c0.984-0.287,1.641-0.584,2.323-0.666c8.417-1.018,16.853-1.6,25.308-0.549c6.203,0.771,12.236,2.158,17.607,5.604
			c0.203,0.131,0.46,0.176,1.164,0.434c-0.616-0.82-0.955-1.342-1.359-1.803c-7.156-8.195-11.058-17.631-11.033-28.633
			c0.006-3.195-0.26-6.402-0.574-9.586c-0.268-2.723-0.588-5.479-2.776-8.092c10.869,6.963,22.142,34.852,21.394,52.49
			c-0.797-0.422-1.352-0.715-2.381-1.26c0.689,1.264,1.117,2.049,1.771,3.25c-0.074-0.012-0.139-0.021-0.21-0.029
			c0.749,1.236,1.541,2.453,2.386,3.646c6.401,1.188,12.48,3.443,18.032,7.301c0.407,0.283,0.914,0.426,1.375,0.633
			c-0.017-0.021-0.031-0.041-0.047-0.061c-0.005-0.004-0.015-0.014-0.015-0.016l0,0c-0.684-0.703-1.324-1.459-2.071-2.09
			c-7.962-6.684-14.222-14.615-17.874-24.459c-2.444-6.59-3.524-13.381-2.967-20.408c0.033-0.43,0.112-0.855,0.188-1.279
			c0.011-0.053,0.14-0.082,0.472-0.26c0.596,0.713,1.258,1.463,1.871,2.25c6.662,8.545,11.547,18.09,15.414,28.152
			c2.045,5.322,3.653,10.82,5.461,16.236c0.245,0.732,0.646,1.498-0.494,1.857c0.004,0.002,0.006,0.006,0.01,0.008
			c-0.002-0.002-0.002-0.002-0.004-0.004l0.07,0.076c-0.005-0.002-0.01-0.004-0.016-0.006c0.505,0.631,1.009,1.264,1.513,1.895
			c-3.224,0.922-7.405,1.604-12.125,1.963l6.56,4.314l3.699-5.369l0.36-0.34l2.112,6.568c2.212-0.695,3.971-2.146,4.951-4.082
			c0.455-0.9,0.686-1.777,0.779-2.592c-2.255-3.852-3.994-7.975-5.301-12.295c-2.302-7.613-4.191-15.354-6.254-23.043
			c-0.124-0.463-0.161-0.951-0.268-1.609c0.467,0.182,0.733,0.219,0.922,0.363c7.515,5.729,14.67,11.848,20.738,19.15
			c2.717,3.27,5.135,6.744,6.975,10.6c1.635,3.426,2.464,6.967,2.078,10.816c-0.377,3.781-0.48,7.592-0.721,11.678
			c-0.89-0.275-1.781-0.492-2.627-0.824c-4.199-1.652-7.619-4.383-10.535-7.781c-0.235-0.273-0.451-0.563-0.679-0.84l-8.663,2.479
			c-0.191,0.055-0.404,0.104-0.601,0.154c4.419,1.633,8.552,4.139,12.409,7.609c-1.131,0.197-1.855,0.318-2.579,0.445
			c-0.017,0.098-0.032,0.193-0.048,0.295c3.311,0.859,6.656,1.607,9.922,2.617c3.289,1.014,6.382,2.516,9.574,4.764
			c-1.168,0.559-2.039,1.035-2.951,1.4c-7.073,2.832-14.447,3.275-21.904,2.473c-6.473-0.699-12.654-2.609-18.589-5.299
			c-0.455-0.207-0.888-0.461-1.701-0.889c4.167-2.242,8.235-3.311,12.386-4.572c-0.502-0.084-1-0.229-1.505-0.242
			c-7.254-0.213-14.502-0.555-21.557-2.438c-2.892-0.771-5.694-1.875-8.521-3.174c0.786-0.426,1.582-0.811,2.377-1.182
			c-2.705-0.266-5.636-0.648-8.681-1.195l-9.655,5.215l12.922,5.938c3.113,1.432,5.85,2.482,8.51,3.264l-1.496,0.807l11.853,6.195
			l0.688,0.365c0.539,0.291,0.945,0.504,1.379,0.701c7.129,3.229,13.936,5.16,20.811,5.9c0.572,0.063,1.129,0.094,1.694,0.141
			c-0.164,0.158-0.335,0.314-0.495,0.471c-0.264,0.256-0.542,0.525-0.847,0.813l-7.83,7.328l9.851,4.332
			c6.062,2.664,12.805,4.01,19.502,3.891l0,0c2.241-0.041,4.454-0.25,6.625-0.604l-6.763,5.717l11.876,4.053
			c4.278,1.461,8.673,2.082,13.436,1.9l0,0c5.932-0.227,11.629-1.689,16.9-3.24l5.298-1.557L396,758.58l77.028-77.027l4.867,2.121
			c4.519,1.971,9.923,2.385,12.741,2.457c3.916,0.102,10.613-1.137,15.691-3.48c3.202-1.48,8.445-6.088,8.445-6.088l-1.763-1.131
			c0.512,0.037,4.398,0.326,4.399,0.326c7.28,0.24,24.202-3.357,25.978-10.02c0.372-1.398-3.393-4.711-4.983-6.035
			c8.984-0.74,17.771-3.344,24.708-7.408l10.565-6.191l-0.604-0.346c1.996-0.545,3.899-1.18,5.728-1.906
			c0.96-0.383,1.792-0.801,2.598-1.205c0.304-0.152,0.618-0.311,0.953-0.473c0,0,9.459-4.438,9.459-6.318
			c0-1.178-3.867-3.451-6.378-4.805c-1.191,0.279-2.299,0.521-3.276,0.717c-1.532,0.309-3.087,0.531-4.654,0.703
			c0.235,0.105,0.477,0.199,0.709,0.309c0.229,0.107,0.423,0.287,0.983,0.678c-1.156,0.557-2.102,1.078-3.094,1.475
			c-5.342,2.123-10.942,3.143-16.634,3.633c-4.191,0.361-8.401,0.514-12.604,0.754c4.225,1.365,8.6,2.258,12.575,4.533
			c-12.576,7.369-33.162,9.252-44.666,2.314c6.046-4.137,12.731-6.094,19.775-7.361c-0.8-0.146-1.602-0.295-2.717-0.498
			c0.463-0.59,0.728-1.09,1.132-1.422c3.25-2.678,6.748-4.721,10.484-6.145c-0.085-0.023-0.16-0.047-0.256-0.072l-3.398-0.906
			l7.189-1.307h0.366c0.399-0.002,0.853-0.035,1.334-0.123l2.711-0.088l1.643-2.51l2.423-2.568c0.019-0.018,0.038-0.033,0.057-0.049
			c0.022-0.021,0.046-0.041,0.066-0.061c-2.938-0.27-5.875-0.646-8.81-1.135c-0.49-0.08-0.965-0.25-1.706-0.449
			c0.865-0.938,1.571-1.701,2.272-2.457c-0.001,0-0.002,0-0.003,0l0.083-0.088c0,0-0.083,0.088-0.083,0.086
			c0.02-0.025,0.035-0.057,0.053-0.084c-0.236,0.008-0.476,0.006-0.712,0.025c-0.172,0.012-0.338,0.057-0.826,0.145
			c4.986-17.557,11.58-34.117,23.147-48.283c0.212,0.023,0.422,0.051,0.631,0.072c0.119,1.752,0.385,3.51,0.334,5.258
			c-0.401,13.602-5.556,25.234-14.78,35.088c-2.183,2.33-4.674,4.365-7,6.563c-0.325,0.311-0.538,0.74-0.794,1.131
			c0.012,0,0.021,0,0.03,0c-0.026,0.027-0.054,0.057-0.08,0.086c0.532-0.266,1.102-0.479,1.594-0.807
			c5.317-3.521,11.122-5.635,17.229-6.764c0.833-1.168,1.613-2.355,2.353-3.559c-0.062,0.01-0.12,0.02-0.184,0.029
			c0.61-1.135,1.079-2,1.727-3.203c-0.864,0.391-1.471,0.668-2.098,0.949c-2.374-13.594,9.99-44.709,20.918-52.189
			c-2.254,3.336-2.458,6.865-2.684,10.383c-0.279,4.32-0.327,8.668-0.806,12.965c-0.965,8.633-4.755,16.025-10.383,22.535
			c-0.588,0.686-1.156,1.387-1.625,2.23c5.275-3.469,11.134-5.1,17.234-5.975c6.273-0.904,12.59-0.781,18.894-0.461
			c3.249,0.164,6.48,0.68,9.721,1.035c0.041,0.189,0.087,0.379,0.131,0.57c-5.481,3.965-11.05,7.58-18.29,7.4
			c-6.144-0.154-12.212,0.578-18.266,1.473c7.472,0.295,15.178,1.5,22.964,3.604c0.779,0.213,1.376,0.471,1.771,0.639l0.117,0.049
			c1.592,0.646,3.356,1.561,3.676,1.93c4.582-1.674,8.548-4.328,12.281-7.029l3.818-2.764c0,0,5.994-4.959,5.011-7.131
			c-1.054-2.324-8.76-3.182-11.473-3.414c6.896-2.955,20.079-10.307,26.444-16.594c3.083-3.047,11.224-11.326,9.953-13.199
			c-0.448-0.66-4.664-0.184-9.006,0.508c0.97-0.551,1.935-1.127,2.886-1.758c8.312-5.51,19.095-16.709,20.688-26.922
			c0.205-1.316-4.266-0.795-7.784-0.189l0.567-0.268c4.978-2.334,9.32-5.969,12.509-11.072c2.572-4.117,7.911-13.869,6.771-14.855
			c-0.65-0.563-3.38-0.313-6.148,0.127c3.124-4.166,5.734-9,7.909-14.688c0,0,4.303-11.295,3.146-14.932
			c-0.125-0.395-0.653-0.475-1.418-0.352c2.585-4.268,4.84-8.979,6.767-14.229c0.28-0.764,0.403-1.422,0.479-1.826l0.4-1.82
			L758.58,396z M695.995,409.086c1.427-4.898,2.29-9.738,3.002-14.181l1.027-7.961L709.08,396L695.995,409.086z M665.523,398.1
			c1.167-8.337,5.206-15.109,11.329-20.737c3.947-3.625,7.918-7.229,11.782-10.942c1.726-1.657,3.215-3.561,5.146-5.723
			c-0.794,3.643-1.456,6.902-2.217,10.137c-1.367,5.819-3.103,11.517-5.563,16.982c-1.927,4.277-4.58,7.919-8.553,10.51
			c-1.521,0.992-2.975,2.084-4.51,3.045c-2.693,1.688-5.526,3.199-7.133,6.828C665.023,404.438,665.082,401.268,665.523,398.1z
			 M624.309,212.516c0.3,0.27,0.539,0.405,0.665,0.611c4.622,7.474,8.373,15.321,9.838,24.074
			c1.016,6.078,0.688,12.067-1.911,17.777c-1.354,2.969-2.89,4.984-5.101,6.646c-1.978-2.126-3.163-4.512-4.151-7.005
			c-2.766-6.981-3.266-14.292-2.856-21.682c0.354-6.395,1.34-12.713,2.977-18.918C623.894,213.537,624.104,213.076,624.309,212.516z
			 M477.525,164.604c-0.281-0.147-0.509-0.404-0.88-0.707c3.199-2.447,6.771-3.616,10.536-4.258
			c7.655-1.307,15.126-0.125,22.533,1.802c1.063,0.277,2.123,0.575,3.188,0.862c0.104-0.155,0.207-0.311,0.312-0.466
			c-0.998-0.953-1.997-1.904-2.993-2.858c2.233,0.275,3.778,1.775,5.566,2.809c1.843,1.064,3.617,2.247,5.959,3.713
			c-0.4-0.858-0.479-1.173-0.663-1.403c-5.511-6.979-9.147-14.892-11.104-23.514c-1.212-5.335-3.797-9.79-7.254-13.865
			c-0.588-0.691-1.154-1.4-1.479-2.402c0.505,0.253,1.022,0.483,1.516,0.763c12.608,7.155,21.065,17.679,25.369,31.545
			c0.793,2.559,1.388,5.181,2.139,7.753c0.461,1.573,0.909,3.176,1.607,4.646c1.114,2.351,2.429,4.586,4.893,5.866
			c0.703,0.365,1.648,0.821,1.124,1.732c-1.756,0.132-3.372,0.096-4.917,0.401c-3.378,0.667-6.738,1.449-10.08,2.288
			c-5.014,1.257-9.943,0.894-14.798-0.698c-3.361-1.104-6.531-2.637-9.741-5.048c7.801-4.446,15.781-5.925,24.438-4.765
			c-1.763-1.664-3.738-2.935-5.794-4.041c-0.417-0.225-1.3,0.234-1.888,0.536c-3.642,1.867-7.456,3.223-11.501,3.811
			C494.442,170.438,485.742,168.896,477.525,164.604z M441.21,156.419c1.777-0.904,3.313-1.839,4.958-2.494
			c4.211-1.675,8.659-2.316,13.147-2.575c4.912-0.283,9.783-0.15,14.678,0.837c4.635,0.935,9.396,1.24,14.386,1.857
			C476.407,165.938,455.736,165.195,441.21,156.419z M439.267,132.777c8.148,1.542,15.814,4.548,23.271,8.183
			c0.153-0.229,0.308-0.456,0.463-0.686c-0.376-0.202-0.796-0.351-1.123-0.614c-6.246-4.998-11.748-10.749-16.78-16.945
			c-4.155-5.118-8.481-10.062-13.41-14.449c-0.248-0.221-0.436-0.506-1.027-1.207c1.871,0.433,3.245,0.721,4.604,1.067
			c7.152,1.83,14.065,4.329,20.225,8.463c3.139,2.106,6.089,4.576,8.777,7.234c1.81,1.784,3.107,4.126,4.459,6.328
			c2.262,3.685,4.272,7.527,6.6,11.17c2.232,3.504,5.067,6.527,8.301,9.331c-0.63-0.097-1.3-0.091-1.884-0.312
			c-2.985-1.124-6.068-2.074-8.878-3.544c-2.114-1.104-4.162-1.396-6.445-1.313c-14.729,0.525-28.879-2.193-42.47-7.855
			c-2.707-1.126-5.318-2.487-7.962-3.77c-0.512-0.249-0.959-0.634-1.831-1.222C422.868,130.909,431.072,131.229,439.267,132.777z
			 M469.969,115.023c7.57,2.304,14.704,5.122,18.999,12.358c2.865,4.829,5.678,9.691,8.533,14.526
			c2.539,4.299,5.105,8.579,7.552,12.689C489.951,153.035,470.541,131.43,469.969,115.023z M560.414,189.282
			c0.339,0.254,0.792,0.351,1.389,0.602c-12.231,7.15-28.638,5.153-39.966-4.476c1.739-0.543,3.087-1.034,4.473-1.382
			c4.685-1.175,9.38-2.267,14.272-2.029C547.956,182.354,554.525,184.872,560.414,189.282z M602.284,241.67
			c-15.551-4.17-28.657-11.799-39.831-23.215C576.854,214.139,598.669,226.846,602.284,241.67z M593.837,220.488
			c-16.527-4.598-32.232-11.106-47.099-19.754c6.667-1.675,13.261-1.124,19.729,0.688
			C577.731,204.581,586.697,211.195,593.837,220.488z M591.216,249.433c-3.983-3.21-7.54-6.852-10.676-10.903
			c-0.509-0.66-0.956-1.371-1.436-2.065c0.24-0.15,0.329-0.251,0.388-0.234c5.146,1.343,10.328,2.571,15.432,4.071
			c8.696,2.562,15.704,7.79,21.74,14.411c1.79,1.962,3.391,4.099,5.443,6.6c-2.868,0.246-5.101-0.266-7.304-0.668
			C605.955,259.021,598.187,255.05,591.216,249.433z M602.598,189.411c14.171,13.706,17.479,36.45,11.423,53.688
			c-0.63-0.55-1.232-1.002-1.752-1.538c-5.848-6.043-9.145-13.39-10.738-21.544c-1.928-9.843-1.385-19.658,0.616-29.429
			C602.212,190.256,602.391,189.944,602.598,189.411z M593.211,191.351c1.46,7.158,0.631,14.124-1.813,20.943
			c-0.11,0.307-0.334,0.57-0.73,1.234c-7.669-16.037-11.489-32.859-15.248-50.096c0.643,0.374,0.964,0.498,1.205,0.712
			C584.902,171.524,590.952,180.277,593.211,191.351z M583.297,206.036c-0.469-0.081-0.747-0.042-0.874-0.165
			c-10.211-9.82-18.188-21.076-21.757-35.009c-1.669-6.529-2.888-13.176-4.331-19.766c-0.294-1.334-0.688-2.646-1.034-3.968
			C570.01,164.16,578.266,184.205,583.297,206.036z M556.511,184.482c-0.349-0.313-0.617-0.482-0.789-0.723
			c-5.385-7.424-10.863-14.78-16.074-22.324c-1.692-2.45-2.857-5.32-3.946-8.123c-1.396-3.588-3.171-6.937-5.49-9.969
			c-2.154-2.815-4.494-5.487-6.754-8.221c-0.473-0.573-0.954-1.137-1.598-1.901C541.365,139.49,558.478,158.474,556.511,184.482z
			 M438.86,125.78c-4.038-0.573-9.37-1.095-12.824-1.095c-0.322,0-0.646,0.019-0.967,0.023c-4.142,0.06-8.285,0.479-12.333,1.281
			l-13.946,2.766l-0.712-2.949h-4l-0.667,2.78l-13.091-2.596c-4.363-0.865-8.838-1.305-13.299-1.305
			c-0.021,0-0.047,0.001-0.068,0.001c-3.827,0.007-9.901,0.641-13.998,1.277L396,82.92L438.86,125.78z M394.41,180.07l0.17-6.9h2.87
			l0.17,6.9H394.41z M397.83,188.48l0.29,11.25h-4.2l0.28-11.25H397.83z M394.74,167l0.15-6.109h2.25L397.29,167H394.74z
			 M395.01,156l0.16-6.279h1.68l0.16,6.279H395.01z M395.26,146.17l0.12-4.62h1.271l0.109,4.62H395.26z M393.641,210.92h4.76
			l0.58,23.16h-5.932L393.641,210.92z M345.17,154.446c1.829,0.669,3.542,1.657,5.271,2.805c-8.571,5.001-17.687,7.142-27.459,6.354
			c-7.065-0.569-15.985-4.644-19.254-8.842c2.158-0.27,4.185-0.489,6.201-0.781c4.432-0.641,8.848-1.391,13.288-1.945
			c1.956-0.244,3.96-0.225,5.935-0.146C334.589,152.104,340.009,152.561,345.17,154.446z M315.381,164.75
			c-6.333,3.708-13.001,5.396-20.046,5.616c-7.151,0.225-13.828-1.67-20.119-5.186c-2.196,1.458-4.317,2.863-6.933,4.6
			c11.953-1.327,19.333,0.85,25.193,4.639c-3.049,2.293-6.355,3.864-9.881,5.006c-5.412,1.757-10.789,1.839-16.291,0.156
			c-3.449-1.053-7.066-1.564-10.623-2.253c-0.548-0.104-1.164,0.21-1.75,0.22c-0.355,0.007-0.715-0.204-1.336-0.399
			c0.528-0.559,0.797-1.017,1.198-1.239c3.675-2.062,5.335-5.533,6.479-9.332c1.072-3.561,1.888-7.206,3.064-10.729
			c4.485-13.421,13.066-23.444,25.354-30.325c0.414-0.23,0.847-0.421,1.486-0.354c-0.648,0.771-1.296,1.543-1.949,2.311
			c-3.471,4.069-6.028,8.538-7.246,13.873c-1.926,8.444-5.452,16.227-10.809,23.103c-0.21,0.271-0.357,0.587-0.521,0.891
			c-0.024,0.046,0.031,0.134,0.146,0.55c3.838-2.417,7.596-4.783,11.354-7.148c-0.693,1.85-2.662,2.589-3.812,4.405
			c3.29-0.78,6.272-1.595,9.3-2.185c6.932-1.35,13.881-1.743,20.771,0.267C310.818,161.935,313.121,162.898,315.381,164.75z
			 M167.775,265.487c0.559-2.124,3.369-5.924,8.148-10.371c3.211-2.988,6.7-5.674,10.479-8.841
			c-2.405,0.646-4.395,1.182-6.555,1.763c5.688-16.025,23.278-29.288,43.894-25.604c-3.623,3.9-7.409,7.25-11.554,10.15
			c-4.092,2.865-8.345,5.495-12.504,8.506c2.695-0.549,5.42-0.977,8.075-1.677c2.644-0.697,5.216-1.667,7.82-2.514
			C207.67,250.242,187.87,265.292,167.775,265.487z M269.62,186.229c-8.521,8.675-26.245,12-38.985,4.796
			C241.498,181.431,256.059,180.746,269.62,186.229z M245.234,201.277c-3.93,4.15-37.637,18.511-47.25,20.054
			C208.709,206.626,227.781,197.764,245.234,201.277z M286.445,155.609c0.396-0.63,0.673-1.083,0.965-1.525
			c1.431-2.159,2.979-4.251,4.281-6.485c3.05-5.23,5.963-10.54,8.979-15.789c0.903-1.574,1.934-3.076,2.946-4.583
			c2.581-3.831,5.971-6.7,10.249-8.456c2.621-1.077,5.275-2.064,8.242-3.221C320.248,133.615,304.438,151.283,286.445,155.609z
			 M341.35,145.498c-6.01,0.751-12.027,1.124-18.091,0.748c-1.03-0.063-2.187,0.394-3.141,0.889
			c-3.918,2.033-7.948,3.702-12.402,4.362c4.177-2.958,7.36-6.798,10.045-11.049c1.8-2.848,3.563-5.749,5.023-8.78
			c2.083-4.318,5.086-7.813,8.729-10.809c7.082-5.82,15.307-9.3,24.053-11.681c1.646-0.448,3.316-0.806,4.977-1.206
			c0.064,0.188,0.132,0.376,0.199,0.563c-1.057,1-2.166,1.95-3.158,3.009c-2.838,3.027-5.773,5.979-8.408,9.179
			c-6.011,7.295-12.281,14.313-19.708,20.21c-0.198,0.155-0.339,0.383-0.872,1c1.031-0.39,1.629-0.56,2.178-0.829
			c8.264-4.076,16.89-6.99,26.043-8.255c6.724-0.93,13.424-0.882,20.107,0.336c0.129,0.022,0.227,0.199,0.527,0.478
			c-0.756,0.463-1.434,0.938-2.162,1.313C364.604,140.519,353.285,144.007,341.35,145.498z M270.068,134.014
			c-0.98,1.146-1.613,1.842-2.196,2.575c-2.576,3.249-5.32,6.381-7.642,9.804c-1.627,2.402-2.689,5.193-3.967,7.832
			c-1.164,2.399-1.971,5.038-3.467,7.199c-5.357,7.744-10.939,15.33-16.447,22.97c-0.181,0.252-0.464,0.43-0.771,0.707
			C233.217,162.144,248.285,141.09,270.068,134.014z M236.521,147.962c-0.1,0.514-0.185,1.029-0.299,1.54
			c-1.396,6.241-2.927,12.455-4.162,18.729c-1.387,7.047-3.959,13.589-7.578,19.75c-3.743,6.375-8.313,12.104-13.512,17.341
			c-0.591,0.595-1.255,1.118-1.886,1.675C213.619,185.138,221.865,165.091,236.521,147.962z M216.563,164.086
			c-3.795,17.381-7.592,34.184-15.248,50.146C193.65,197.764,200.127,177.259,216.563,164.086z M189.501,190.01
			c0.437,2.285,0.914,4.357,1.216,6.456c1.278,8.905,1.328,17.79-0.792,26.59c-1.714,7.112-4.829,13.514-9.875,18.885
			c-0.415,0.44-0.836,0.875-1.28,1.287c-0.181,0.166-0.43,0.257-0.857,0.504C171.857,226.5,175.251,203.772,189.501,190.01z
			 M166.635,214.428c0.219-0.356,0.491-0.68,0.739-1.019c0.199,0.029,0.399,0.059,0.599,0.087c0.711,3.449,1.563,6.877,2.107,10.354
			c1.129,7.194,1.68,14.424,0.695,21.698c-0.666,4.931-1.92,9.661-4.496,13.961c-0.608,1.017-1.348,1.951-2.129,3.071
			c-1.903-1.495-3.127-3.239-4.188-5.106c-2.646-4.655-3.463-9.717-3.258-15c0.167-4.358,1.115-8.563,2.521-12.668
			C161.083,224.386,163.648,219.305,166.635,214.428z M131.545,254.519c0.43,3.218,0.82,6.443,1.294,9.655
			c0.67,4.55,1.945,8.935,3.417,13.292c1.479,4.374,2.646,8.853,3.895,13.303h5.74c-0.007-0.034-0.016-0.067-0.021-0.102
			c-1.527-7.909-2.689-15.861-3.026-23.926c-0.143-3.458-0.599-6.903-0.747-10.36c-0.326-7.603,1.277-14.77,5.313-21.836
			c0.685,1.033,1.2,1.708,1.61,2.439c9.875,17.633,10.447,35.576,2.434,53.784h2.941c3.875-6.135,8.207-11.912,13.459-16.973
			c4.422-4.26,9.41-7.542,15.326-9.385c5.272-1.642,10.481-3.485,15.723-5.227c0.219-0.073,0.479-0.01,1.141-0.01
			c-8.038,10.315-17.029,19.253-26.852,27.47c4.019-1.448,8.037-2.896,12.64-4.557c-0.513,0.906-0.664,1.339-0.948,1.65
			c-2.133,2.351-4.283,4.686-6.423,7.03h11.821c0.773-0.865,1.201-1.681,1.512-2.278c0.084-0.163,0.186-0.36,0.323-0.604
			l1.411-2.494L300.57,178.35l1.51-1.137c6.083-0.931,11.682-2.92,16.97-6.017l2.351-1.376c0.127,0.015,0.253,0.028,0.378,0.041
			c0.204,0.021,0.417,0.05,0.618,0.065c1.502,0.121,3.016,0.183,4.496,0.183c0,0,0,0,0.002,0c9.521,0,18.675-2.524,27.207-7.5
			c0,0,5.314-2.73,5.396-5.576c0.076-2.619-4.256-5.881-4.941-6.381c5.949-1.34,11.771-3.318,17.35-6.143
			c4.501-2.277,14.681-8.571,20.636-12.305L354.53,290.771h24.54h3.09l1.365,2.729h8.041l1.004-39.95h6.899l0.939,37.221h1.28
			h36.212l-38.438-159.224c5.729,3.601,16.905,10.544,21.685,12.963c5.265,2.664,10.744,4.581,16.346,5.915
			c-3.367,1.621-8.809,4.609-7.589,6.484c3.965,6.101,20.605,13.938,34.838,13.2c1.838,0,3.641-0.113,5.41-0.316
			c0.514-0.059,1.022-0.125,1.529-0.2c0.48,0.331,0.973,0.647,1.353,0.847c4.183,2.185,10.82,4.386,16.039,5.554l106.854,106.855
			l4.885,5.965c0.545,0.664,1.094,1.314,1.645,1.958h11.679c-2.588-2.875-5.224-5.705-7.725-8.759
			c4.353,0.507,8.186,2.601,12.377,3.654c-9.98-8.104-18.979-17.11-27.237-27.682c5.269,1.732,9.92,3.488,14.698,4.786
			c9.589,2.607,16.961,8.354,23.073,15.916c2.715,3.358,5.151,6.942,7.688,10.444c0.336,0.466,0.584,1,0.905,1.64h3.016
			c-0.406-0.548-0.763-1.394-1.28-2.688c-7.104-17.724-6.159-34.96,3.19-51.667c0.337-0.601,0.722-1.18,1.115-1.745
			c0.137-0.196,0.375-0.321,0.704-0.594c2.131,3.473,3.437,7.174,4.336,11.037c1.316,5.648,0.945,11.349,0.46,17.045
			c-0.478,5.599-0.889,11.207-1.551,16.784c-0.479,4.049-1.281,8.054-1.919,11.835c1.895,0.018,3.737,0.172,5.53,0.458
			c0.63-3.726,1.592-7.513,2.981-11.147c3.119-8.153,5.093-16.527,5.692-25.235c0.021-0.308,0.209-0.604,0.464-1.3
			c0.633,1.132,1.131,1.92,1.53,2.756c2.512,5.224,3.77,10.748,4.034,16.535c0.355,7.729-0.86,15.223-2.984,22.591
			c2.498,1.474,4.852,3.291,7.051,5.456c1.519-1.892,3.207-3.771,5.095-5.594c0.531,1.908,0.568,7.489,0.292,12.269
			c3.402,5.435,5.128,11.584,5.128,18.373c0,2.927-0.324,5.733-0.959,8.418c2.438-1.7,5.082-3.096,7.992-4.146
			c0.908,1.766,0.919,3.596,1.007,5.362c0.361,7.109-1.431,13.731-4.813,19.935c-4.391,8.049-10.556,14.509-17.858,19.955
			c-0.41,0.307-0.787,0.658-1.157,1.023v27.493v5h-5h-4.17h-0.666l-5.008,5.605l0.045,0.039l2.462-2.016l1.382-1.131h1.785h4.17
			h0.47c0.571-0.639,1.036-1.156,1.493-1.672c0.233,0.123,0.471,0.244,0.704,0.365c-0.062,0.418-0.122,0.84-0.188,1.307h2.521v5
			v4.121c1.873-5.068,5.204-9.529,10.207-13.355c3.087-2.361,6.088-4.842,9.084-7.322c2.937-2.43,5.762-4.971,7.585-8.459
			c-1.271,7.928-2.844,15.762-6.596,22.934c-0.948,1.813-2.259,3.486-3.653,4.99c-1.998,2.15-4.202,4.109-6.354,6.109
			c-3.565,3.316-7.222,6.541-10.271,10.707v9.973c2.891-4.07,6.144-7.779,10.366-10.633c5.009-3.383,9.848-7.016,14.769-10.533
			c0.614-0.438,1.253-0.838,2.318-1.035c-0.555,2.029-0.991,4.1-1.683,6.076c-2.621,7.48-6.917,13.965-12.42,19.561
			c-3.806,3.869-8.054,7.303-12.133,10.896c-0.354,0.313-0.752,0.58-1.219,0.873v0.947v5h-5h-22.26l-0.042,0.043h-4.271
			c-0.34-0.002-0.676-0.004-1.02-0.004l-7.43,0.002l-1.53,0.002l-0.735,2.266l-1.022,3.154c-0.176,0.518-0.289,0.889-0.39,1.289
			c-0.653,2.672-1.152,5.348-1.531,8.021l-3.219,6.416L396,709.08L173.953,487.033l-1.592-2.668
			c-0.282-2.287-0.68-4.498-1.071-6.639c-0.188-1.029-0.377-2.059-0.549-3.088l-0.712-4.25l-0.284-1.703h-1.418h-5.494
			c0.813,4.611,2.179,12.215,2.479,14.973c0.793,7.27,0.789,14.525-1.297,21.641c-1.268,4.322-3.132,7.965-5.764,10.93
			c-1.156-1.268-2.297-2.311-3.188-3.535c-1.754-2.416-2.701-5.211-3.323-8.111c-1.466-6.814-0.946-13.621,0.263-20.391
			c0.573-3.203,2.801-12.395,3.823-16.859h-3.263c-1.549,5.754-4.608,16.586-7.908,20.729c-1.891-4.479-4.176-15.145-4.881-20.729
			h-2.783h-5v-5v-4.16v-5h5c0.404,0,0.813-0.029,1.222-0.059c-2.496-3.752-2.539-9.725-0.163-23.41
			c-1.709,1.002-3.096,1.814-4.708,2.76c-2.409-2.215-3.094-4.645-3.717-7.086c-1.419-5.586-0.18-11.045,2.065-16.43
			c3.707-8.877,10.352-16.842,18.142-24.44c0.138-0.134,0.422-0.202,0.976-0.453c0.129,0.058,0.239,0.122,0.365,0.181
			c-1.119-1.458-2.438-2.708-3.982-3.743l-4.139-2.759l-0.199,0.14c-0.006-0.004-0.013-0.009-0.02-0.014
			c-3.523,4.93-7.434,9.602-12.506,14.185c0.021-6.627,0.995-12.39,2.202-17.98l-1.788-0.259c-0.074,0.997-0.204,1.914-0.401,2.692
			c-1.937,0.034-3.666-0.699-5.317-1.635c-1.525-0.865-2.885-1.914-4.131-3.085c0,0.074,0,0.137,0,0.219
			c-14.651-12.34-20.213-29.107-16.922-40.701c6.877,1.098,17.037,10.052,20.528,18.195c2.699,4.492,3.479,6.143,4.058,8.449
			c-0.009-0.095-0.014-0.187-0.021-0.28c0.023-0.023,0.068-0.063,0.099-0.089v-1.447v-2.515v-5.476l5,0.476
			c2.878,0,5.284-0.778,7.349-2.373c1.896-1.469,2.74-3.071,2.74-5.201v-30.176c0-2.132-0.845-3.734-2.733-5.196
			c-2.07-1.601-4.476-2.377-7.354-2.377h-5v-5v-2.515v-1.629c-0.168,0-0.328-0.002-0.5-0.002
			C124.751,280.469,124.023,267.185,131.545,254.519z M610.729,535.381c-0.433-6.488,0.911-12.74,2.56-18.949
			c2.289-8.629,5.392-16.973,8.791-25.211c0.128-0.309,0.297-0.6,0.713-1.428c1.78,4.285,2.796,8.295,3.641,12.35
			c1.582,7.605,2.064,15.266,0.797,22.963c-1.093,6.631-3.73,12.563-8.202,17.646c-1.304,1.482-2.396,3.148-3.944,5.211
			c0.419-1.496,0.689-2.465,0.999-3.568C611.913,542.756,610.988,539.246,610.729,535.381z M635.086,472.166
			c0.682,0.004,1.363,0.076,2.167,0.123c1.303,3.527,2.004,7.164,2.643,10.805c1.033,5.9,1.664,11.822,0.832,17.822
			c-0.493,3.547-1.378,6.955-3.192,10.07c-1.248,2.145-2.156,3.064-4.327,4.348c-1.043-1.746-2.198-3.449-3.121-5.271
			c-2.056-4.059-3.184-8.426-3.606-12.928c-0.749-7.994-0.08-15.906,1.829-23.707c0.081-0.326,0.202-0.641,0.405-1.268
			C630.957,472.16,633.023,472.15,635.086,472.166z M636.153,522.875c-0.28,1.24-1.133,1.727-2.177,2.191
			C634.001,523.051,634.001,523.051,636.153,522.875z M625.377,548.316c0.776-3.123,2.986-2.734,5.225-2.307
			C628.859,546.779,627.118,547.547,625.377,548.316z M647.434,501.992c-1.211-3.15-0.609-5.166,1.973-6.609
			C651.445,499.836,650.827,500.094,647.434,501.992z M647.334,487.367c-3.702-4.701-5.56-9.65-7.029-15.207
			c1.702,0,3.146,0.043,4.584-0.016c1.05-0.043,2.115,0.277,2.943-1.025c0.344-0.545,1.877-0.33,3.19-0.502
			C650.773,476.469,649.547,481.762,647.334,487.367z M512.354,649.92c-0.17-0.008-0.332-0.273-0.496-0.426
			c0.219-0.217,0.411-0.561,0.664-0.607c0.19-0.037,0.455,0.297,0.979,0.682C512.9,649.768,512.624,649.934,512.354,649.92z
			 M180.32,524.283c0.828,4.184,1.258,8.402,0.804,12.645c-0.181,1.686-0.586,3.484-1.42,4.92c-0.819,1.404-2.313,2.414-3.718,3.801
			c0.162,0.551,0.424,1.438,0.683,2.322c-2.819-3.826-6.356-7.094-8.493-11.434c-2.167-4.406-3.482-9.047-3.908-13.904
			c-0.934-10.607,0.813-20.863,4.366-30.844c0.105-0.293,0.279-0.563,0.542-1.08c0.303,0.508,0.506,0.768,0.625,1.057
			C174.122,502.34,178.09,513.027,180.32,524.283z M126.625,406.213c-0.059,0.756-0.241,1.504-0.365,2.256
			c-1.438-2.914-4.042-4.33-6.515-5.904c-1.675-1.066-3.295-2.217-4.968-3.289c-4.311-2.76-7.115-6.722-9.121-11.346
			c-2.903-6.696-4.764-13.708-6.303-20.817c-0.383-1.771-0.707-3.55-1.136-5.725c1.644,1.917,2.921,3.66,4.452,5.139
			c3.792,3.662,7.725,7.177,11.551,10.802c1.691,1.602,3.394,3.225,4.872,5.016C124.809,389.262,127.313,397.246,126.625,406.213z
			 M100.117,392.371c2.131,3.888,5.486,6.623,8.816,9.369c2.731,2.252,5.496,4.471,8.295,6.641
			c6.928,5.371,10.588,12.592,12.01,21.105c0.627,3.746,0.664,7.502,0.035,11.373c-0.713-1.225-1.271-2.582-2.17-3.652
			c-2.223-2.637-4.509-5.236-6.938-7.68c-2.678-2.697-5.499-5.258-8.336-7.785c-3.521-3.141-5.755-7.063-7.354-11.436
			C102.361,404.518,101.033,398.541,100.117,392.371z M131.322,454.727c-0.879,0.213-1.836,0.516-2.818,0.662
			c-3.706,0.572-3.71,0.553-6.65,2.85c-10.57-9.016-19.313-19.236-22.311-33.33c0.18-0.131,0.357-0.26,0.539-0.393
			c2.723,1.957,5.441,3.914,8.167,5.865c3.088,2.211,6.178,4.418,9.272,6.617c6.147,4.373,10.179,10.477,13.791,16.918
			C131.384,454.047,131.322,454.248,131.322,454.727z M116.318,303.446l-0.008-0.165c-0.072-1.746-0.146-3.491-0.232-5.235
			c-0.018-0.361,0.021-0.749,0.066-1.197c0.025-0.25,0.053-0.517,0.076-0.816l0.268,0.213c1.164,0.916,2.857,2.395,4.389,3.964
			c1.014,1.039,1.957,2.116,2.627,3.094c1.872,2.404,4.249,5.916,5.758,9.877c0.006,0.014,0.008,0.023,0.014,0.036
			c0.076,0.148,0.156,0.298,0.229,0.447c0.812,1.63,1.526,3.248,2.149,4.856c1.932,3.69,3.183,14.37,3.173,16.543
			c-0.021,4.945-1.175,9.388-2.312,11.602l-0.039-0.008c-2.056-0.438-3.66-1.725-4.828-2.795c-2.395-2.2-4.307-5.04-6.015-8.938
			c-0.403-0.923-3.409-11.596-3.763-12.557c-0.319-1.77-0.569-3.581-0.748-5.434C116.691,312.449,116.501,307.873,116.318,303.446z
			 M91.826,387.094l1.167,8.635c0.702,4.727,1.601,9.043,2.715,13.061L82.92,396L91.826,387.094z M103.943,457.66
			c2.953,1.078,5.703,2.25,8.33,3.512c0.015,0.006,0.024,0.01,0.039,0.016c0.029,0.016,0.076,0.037,0.119,0.059
			c0.039,0.02,0.078,0.037,0.116,0.057c2.386,1.143,17.472,8.297,22.728,16.883c0.016,0.025,0.027,0.049,0.043,0.072
			c2.506,3.352,4.445,6.967,5.072,11.242c0.221,1.498,0.176,3.031,0.274,4.959c-2.089-0.512-3.771-0.822-5.38-1.344
			c-5.678-1.844-10.604-4.977-14.961-9.021C112.609,476.928,107.673,468.02,103.943,457.66z M113.174,489.053
			c-0.174-0.461-0.256-0.957-0.463-1.746c0.717,0.156,1.207,0.184,1.625,0.367c8.891,3.898,17.479,8.365,25.169,14.344
			c2.921,2.271,5.593,4.9,8.168,7.57c2.109,2.188,3.695,4.809,4.527,7.791c0.293,1.047,0.385,2.152,0.643,3.668
			c-1.181-0.623-1.938-1.002-2.676-1.414c-4.004-2.242-8.136-4.145-12.552-5.482c-7.348-2.23-13.254-6.598-17.816-12.785
			C117.007,497.576,114.841,493.447,113.174,489.053z M120.24,515.752c-0.303-0.49-0.512-1.033-0.938-1.914
			c1.815,0.48,3.276,0.891,4.75,1.246c5.858,1.408,11.743,2.713,17.568,4.248c2.392,0.629,4.795,1.492,6.953,2.684
			c6.573,3.637,11.501,9.021,15.434,15.373c0.136,0.219,0.267,0.447,0.353,0.688c0.051,0.146,0.011,0.322,0.011,0.688
			c-0.699-0.154-1.359-0.25-1.987-0.449c-6.91-2.178-13.695-4.67-20.229-7.84c-3.487-1.693-7.107-3.105-10.622-4.748
			C126.803,523.521,122.996,520.219,120.24,515.752z M136.855,546.422c-2.35-1.596-4.293-3.713-5.924-6.688
			c0.879,0.104,1.312,0.102,1.715,0.209c12.6,3.385,25.033,7.256,36.803,12.992c4.279,2.084,8.414,4.434,11.957,7.682
			c1.996,1.828,3.689,3.861,4.38,6.842c-0.718-0.068-1.296-0.035-1.817-0.188c-12.013-3.564-23.882-7.545-35.033-13.338
			C144.74,551.752,140.777,549.084,136.855,546.422z M150.148,569.967c-0.045-0.041-0.021-0.154-0.084-0.809
			c4.8,0.672,9.414,1.203,13.988,1.977c7.745,1.313,15.35,3.191,22.635,6.217c3.758,1.561,7.358,3.414,10.558,5.965
			c2.239,1.785,4.264,3.773,5.729,6.781c-1.521,0-2.844,0.115-4.14-0.02c-5.243-0.549-10.386-1.627-15.423-3.184
			c-11.639-3.594-22.305-9.158-32.292-16.088C150.77,570.563,150.463,570.254,150.148,569.967z M199.531,581.16
			c-0.469-0.453-0.918-0.828-1.301-1.266c-1.2-1.365-2.299-2.824-3.568-4.117c-6.896-7.025-9.575-15.84-10.793-25.295
			c-0.793-6.139-1.03-12.26,0.551-18.314c0.362-1.391,0.92-2.729,1.539-4.529c6.557,8.277,10.468,17.232,12.721,26.949
			C200.704,563.334,201.104,577.053,199.531,581.16z M279.895,642.475c-0.517-0.332-1.037-0.646-1.559-0.953l0.034-0.57
			L279.895,642.475z M257.029,664.57c1.025-0.959,1.785-1.764,2.639-2.451c8.678-6.986,18.646-9.814,29.668-9.16
			c0.721,0.041,1.605,0.258,2.09,0.727c1.846,1.795,3.557,3.725,5.321,5.607C286.305,668.275,270.4,670.449,257.029,664.57z
			 M287.695,677.402c5.113-4.322,10.632-7.781,16.625-10.865c3.06,3.1,6.006,6.084,9.311,9.432
			C304.777,678.568,296.42,680.379,287.695,677.402z M480.803,674.84c2.739-2.848,5.397-5.619,8.276-8.613
			c4.383,2.816,8.638,5.547,13.007,8.35C498.278,677.318,486.722,677.42,480.803,674.84z M496.719,659.768
			c2.661-2.709,5.288-5.428,7.982-8.076c0.369-0.361,1.086-0.578,1.615-0.537c10.136,0.797,18.984,4.482,26.326,11.717
			C525.419,668.668,505.442,666.926,496.719,659.768z M534.969,628.475l1.405-0.002l-0.1,0.352L534.969,628.475z M534.906,627.602
			c-2.891,3.641-6.29,6.666-10.59,8.551c-1.092,0.477-2.244,0.82-3.736,1.361c0-4.465-0.003-8.523,0.002-12.584
			c0-0.691,0.137-1.404,0.012-2.072c-0.586-3.184,0.521-5.961,1.903-8.703c2.923-5.789,6.886-10.832,11.546-15.246
			c4.827-4.574,9.98-8.801,15.004-13.166c0.435-0.377,0.952-0.648,1.881-1.273c-0.403,1.748-0.655,2.996-0.986,4.223
			c-1.9,7.018-3.658,14.074-5.785,21.02C542.167,616.201,539.159,622.248,534.906,627.602z M606.042,527.453
			c1.585,2.889,2.176,6.025,2.446,9.197c0.817,9.658-0.919,18.977-4.039,28.078c-0.222,0.648-0.55,1.273-0.919,1.852
			c-3.169,4.982-6.996,9.436-11.155,14.102C588.258,566.357,596.279,535.355,606.042,527.453z M633.391,569.529
			c2.898-0.393,5.806-0.721,8.854-1.098c-2.09,2.973-15.423,10.703-24.861,14.537c-8.996,3.65-18.233,6.217-28.515,6.586
			c1.522-3.104,3.51-5.105,5.731-6.887c4.162-3.338,8.938-5.545,13.909-7.326C616.579,572.455,624.917,570.678,633.391,569.529z
			 M657.979,543.086c-2.935,3.119-6.481,5.447-10.162,7.57c-8.725,5.027-18.041,8.697-27.529,11.957
			c-3.999,1.375-8.063,2.564-12.104,3.818c-0.544,0.168-1.123,0.225-1.891,0.371c0.186-2.021,1-3.582,2.227-4.729
			c2.325-2.176,4.696-4.373,7.339-6.119c6.161-4.072,12.935-6.984,19.899-9.338c7.846-2.652,15.802-4.977,23.715-7.434
			c0.385-0.119,0.799-0.15,1.888-0.352C659.983,540.58,659.076,541.926,657.979,543.086z M671.201,515.803
			c-2.441,3.684-5.586,6.67-9.567,8.535c-10.854,5.088-21.685,10.26-33.244,13.627c-0.232,0.068-0.487,0.051-1.003,0.098
			c0.229-0.586,0.334-1.051,0.572-1.434c3.114-5.061,6.947-9.484,11.743-13.016c3.657-2.691,7.643-4.475,12.19-5.354
			c6.167-1.191,12.222-2.986,18.324-4.516c0.644-0.158,1.296-0.271,2.503-0.523C672.037,514.387,671.655,515.117,671.201,515.803z
			 M669.767,503.547c-4.075,4.533-8.984,7.848-14.801,9.631c-4.901,1.5-9.513,3.576-13.925,6.145
			c-0.437,0.254-0.904,0.451-1.817,0.904c0.168-1.338,0.18-2.322,0.428-3.24c1.026-3.779,3.274-6.832,5.899-9.629
			c3.392-3.615,7.29-6.607,11.401-9.342c6.562-4.363,13.538-7.947,20.724-11.139c0.445-0.199,0.917-0.33,1.659-0.592
			c-0.139,0.682-0.164,1.098-0.308,1.473C676.816,493.537,673.931,498.918,669.767,503.547z M672.248,482.76
			c-5.14,4.918-11.023,8.582-17.997,10.295c-0.817,0.199-1.658,0.313-2.784,0.518c-0.478-3.773,0.298-6.936,1.563-9.988
			c1.544-3.73,3.944-6.893,6.788-9.723c6.53-6.502,14.366-10.99,22.69-14.719c1.492-0.668,3.021-1.262,4.542-1.867
			c0.122-0.047,0.314,0.066,0.648,0.148c-0.066,0.301-0.103,0.615-0.209,0.906C684.108,467.539,679.393,475.922,672.248,482.76z"/>
		<path fill="#FFFFFF" stroke="#000000" stroke-miterlimit="10" d="M661.71,357.3h0.493c0.104-0.15,0.213-0.309,0.328-0.47
			C662.256,356.983,661.988,357.154,661.71,357.3z"/>
		<g>
			<path fill="#FFFFFF" stroke="#000000" stroke-miterlimit="10" d="M236.036,629.018c4.237,0.139,8.248,0.896,12.047,2.297
				c0.196-0.053,0.409-0.102,0.601-0.154l8.664-2.48c-1.617-1.975-3.061-4.047-4.33-6.215c-0.094,0.814-0.324,1.691-0.779,2.592
				c-0.98,1.938-2.739,3.389-4.951,4.082l-2.112-6.566l-0.36,0.338l-3.698,5.371l-6.56-4.316
				c-14.828,1.129-35.015-0.932-47.888-8.818c0.709-0.293,1.256-0.604,1.845-0.758c9.75-2.553,19.661-3.807,29.729-3.143
				c2.547,0.17,5.056,0.473,7.519,0.93c-0.845-1.193-1.637-2.412-2.386-3.646c-1.9-0.27-3.434-0.494-4.958-0.693
				c-3.549-0.463-7.099-0.936-10.647-1.398c-6.838,0.373-13.789,1.488-21.106,3.404c-0.993,0.26-1.771,0.617-2.34,0.875
				c-0.138,0.064-0.28,0.131-0.435,0.195l-3.845,1.59L171,616.24l11.874,7.275c7.291,4.467,15.938,6.992,23.844,8.412
				c3.044,0.547,5.976,0.93,8.681,1.193C221.951,630.068,228.855,628.781,236.036,629.018z"/>
		</g>
		<g>
			<path fill="#FFFFFF" stroke="#000000" stroke-miterlimit="10" d="M607.541,609.873c-0.396-0.17-0.991-0.426-1.771-0.639
				c-7.787-2.104-15.493-3.311-22.965-3.605c-2.154,0.318-4.309,0.654-6.462,0.98c-2.499,0.375-4.991,0.811-7.829,1.275
				c-0.738,1.203-1.52,2.393-2.353,3.561c1.692-0.314,3.404-0.564,5.141-0.73c11.028-1.061,21.887,0.168,32.567,3.057
				c0.328,0.09,0.643,0.232,0.958,0.365c0.071,0.029,0.119,0.121,0.374,0.4c-0.834,0.457-1.602,0.916-2.403,1.311
				c-6.877,3.395-14.171,5.434-21.719,6.561c-8.511,1.273-17.011,1.428-25.497,0.648c-0.021,0.02-0.044,0.039-0.066,0.061
				c-0.019,0.016-0.037,0.033-0.057,0.049l-2.423,2.568l-1.643,2.51l-2.71,0.088c-0.482,0.088-0.936,0.121-1.334,0.123h-0.367
				l-7.189,1.307l3.398,0.906c0.096,0.025,0.171,0.049,0.256,0.072c3.639-1.387,7.503-2.188,11.587-2.404
				c7.356-0.393,14.434,0.945,21.276,3.621c0.401,0.158,0.796,0.34,1.19,0.516c1.567-0.172,3.122-0.396,4.654-0.703
				c0.979-0.195,2.085-0.438,3.276-0.717c9.96-2.332,26.282-7.471,30.814-14.391c0.939-1.434-4.911-4.807-4.911-4.807
				c-0.001-0.002-0.004-0.004-0.005-0.006c-0.318-0.367-2.084-1.281-3.676-1.928L607.541,609.873z"/>
		</g>
		<g>
			<polygon fill="#FFFFFF" stroke="#000000" stroke-miterlimit="10" points="534.969,628.475 536.274,628.822 536.374,628.473 			
				"/>
		</g>
		<path fill="#FFFFFF" stroke="#000000" stroke-miterlimit="10" d="M300.3,495.756c0.675,1.023,1.638,1.537,2.888,1.537
			c1.237,0,2.194-0.514,2.869-1.537c0.563-0.838,0.944-2.045,1.145-3.619c0.137-1.063,0.206-2.469,0.206-4.219
			c0-1.838-0.063-3.238-0.188-4.201c-0.199-1.586-0.58-2.799-1.144-3.637c-0.675-1.025-1.638-1.537-2.888-1.537
			c-1.237,0-2.194,0.512-2.869,1.537c-0.563,0.838-0.944,2.043-1.145,3.619c-0.138,1.061-0.206,2.469-0.206,4.219
			c0,1.838,0.063,3.236,0.188,4.199C299.355,493.705,299.736,494.918,300.3,495.756z"/>
		<path fill="#FFFFFF" stroke="#000000" stroke-miterlimit="10" d="M249.8,467.33c-9.592,0-17.368,9.105-17.368,20.338
			s7.775,20.336,17.368,20.336h52.652l-18.334,76.475l97.696,97.697l2.375-94.676h23.709l2.39,94.572l98.336-98.336l-18.282-75.732
			H542.2c9.592,0,17.368-9.104,17.368-20.336c0-10.279-6.52-18.754-14.976-20.121c-0.784-0.127-1.579-0.217-2.394-0.217
			 M329.409,493.402c-0.369-0.457-0.828-0.723-1.378-0.799l-7.5-0.938c-1.738-0.213-3.125-1.063-4.163-2.549
			c-0.976-1.389-1.462-3.039-1.462-4.951c0-2.063,0.734-3.828,2.203-5.297s3.233-2.203,5.297-2.203h16.875h22.5v0.938
			c-1.188,0-2.381,0.426-3.581,1.275c-1.363,0.975-2.044,2.113-2.044,3.412v11.25c0,1.313,0.675,2.451,2.025,3.412
			c1.199,0.852,2.399,1.275,3.6,1.275v0.938h-22.5v-0.938c1.188,0,2.381-0.426,3.58-1.275c1.363-0.975,2.045-2.111,2.045-3.412
			v-11.25c0-1.313-0.676-2.449-2.025-3.412c-1.199-0.85-2.4-1.275-3.6-1.275v5.625c-0.389-0.398-0.775-0.799-1.163-1.199
			c-0.976-0.938-1.925-1.693-2.851-2.27c-1.3-0.811-2.461-1.219-3.486-1.219h-5.625c-0.487,0-0.895,0.176-1.219,0.525
			c-0.326,0.35-0.545,0.801-0.656,1.35c-0.038,0.176-0.057,0.338-0.057,0.488c0,0.588,0.182,1.107,0.543,1.564
			c0.363,0.457,0.825,0.709,1.389,0.76l9.375,0.938c1.736,0.176,3.131,1.014,4.181,2.514c0.962,1.389,1.444,3.049,1.444,4.986
			c0,2.238-0.975,4.076-2.926,5.514c-1.799,1.324-3.949,1.986-6.449,1.986h-16.875v-7.5c0.375,0.488,0.75,0.969,1.125,1.443
			c0.962,1.139,1.894,2.045,2.794,2.719c1.3,0.977,2.493,1.463,3.581,1.463h5.625c0.486,0,0.894-0.174,1.219-0.525
			c0.325-0.35,0.544-0.799,0.656-1.35c0.037-0.174,0.056-0.338,0.056-0.486C329.962,494.367,329.777,493.857,329.409,493.402z
			 M373.969,494.123c0.813,2.113,2.063,3.17,3.75,3.17c1.926,0,3.395-1.051,4.406-3.15c0.813-1.699,1.219-3.773,1.219-6.225
			l2.813,3.75c-1.063,2.262-2.275,3.986-3.639,5.174c-1.263,1.102-2.787,1.857-4.574,2.27c-1.45,0.338-3.4,0.508-5.851,0.508
			c-3.35,0-6.044-1.014-8.081-3.039c-2.113-2.1-3.169-4.986-3.169-8.662c0-3.787,0.947-6.684,2.841-8.689
			c1.895-2.008,4.697-3.01,8.409-3.01c0.75,0.037,1.644,0.082,2.681,0.131c1.037,0.051,2.729,0.115,5.072,0.197
			s4.135,0.121,5.372,0.121v9.375h-1.875c0-2.162-0.481-3.93-1.444-5.307c-1.024-1.461-2.418-2.193-4.181-2.193
			c-1.163,0-2.118,0.506-2.868,1.52c-0.639,0.861-1.113,2.063-1.426,3.602c-0.262,1.299-0.394,2.719-0.394,4.256
			C373.031,490.43,373.344,492.498,373.969,494.123z M407.04,553.471h-22l1.142-45.467h19.711L407.04,553.471z M400.247,479.227
			c1.894-2.006,4.696-3.01,8.409-3.01c0.75,0.039,1.644,0.082,2.682,0.133c1.037,0.051,2.729,0.115,5.07,0.195
			c2.344,0.082,4.135,0.123,5.373,0.123h27.188c1.552,0,2.875,0.549,3.976,1.65c1.102,1.1,1.649,2.424,1.649,3.975
			c0,1.512-0.571,2.828-1.715,3.947c-1.145,1.117-2.447,1.678-3.91,1.678v0.938c2.125,0,3.552,0.807,4.275,2.42
			c0.375,1.512,0.756,3.018,1.145,4.518c0.486,1.625,1.492,2.439,3.019,2.439v0.938h-8.438c-1.735,0-3.25-0.52-4.537-1.557
			c-1.35-1.088-2.024-2.443-2.024-4.068v-1.875c0-0.875-0.394-1.576-1.183-2.1c-0.711-0.477-1.567-0.715-2.567-0.715v4.689
			c0,1.299,0.457,2.406,1.369,3.318s2.02,1.367,3.317,1.367v0.939h-20.811c-0.363,0.004-0.774,0.02-1.258,0.051
			c-1.275,0.088-2.457,0.227-3.545,0.414c-1.588,0.273-3.049,0.662-4.388,1.162v-1.459c-0.649,0.1-1.35,0.172-2.1,0.217
			c-0.75,0.043-1.613,0.064-2.589,0.064c-3.35,0-6.043-1.014-8.08-3.037c-2.112-2.102-3.17-4.988-3.17-8.662
			C397.406,484.131,398.354,481.232,400.247,479.227z M483.281,494.086c-1.361,1.613-3.23,2.875-5.605,3.787
			c-2.237,0.863-4.619,1.295-7.145,1.295c-3.963,0-7.375-0.957-10.236-2.869c-3.176-2.125-4.764-4.918-4.764-8.381
			c0-2.338,0.75-4.395,2.25-6.17c1.362-1.611,3.231-2.875,5.606-3.787c2.236-0.861,4.617-1.293,7.144-1.293
			c3.963,0,7.375,0.955,10.237,2.869c3.175,2.125,4.763,4.918,4.763,8.381C485.531,490.256,484.781,492.311,483.281,494.086z
			 M543.037,486.83c-1.086,1.35-2.443,2.023-4.068,2.023h-10.312v4.689c0,1.299,0.457,2.406,1.369,3.318s2.02,1.367,3.317,1.367
			v0.939h-21.562v-0.939c1.487,0,2.781-0.424,3.881-1.273c1.164-0.9,1.744-2.037,1.744-3.412v-11.25c0-1.375-0.58-2.514-1.744-3.412
			c-0.563-0.436-1.177-0.756-1.841-0.969c-0.745,0.258-1.464,0.666-2.151,1.268c-1.15,1.014-1.727,2.051-1.727,3.113v10.313
			c0,1.611-0.556,3.094-1.668,4.441c-1.162,1.414-2.494,2.119-3.994,2.119H493.97c-1.524,0-2.844-0.555-3.955-1.668
			c-1.112-1.113-1.67-2.432-1.67-3.957v-9.375c0-1.625-0.518-3.1-1.557-4.424c-1.125-1.426-2.48-2.139-4.068-2.139h-0.938v-0.938h30
			h4.688h22.5c1.551,0,2.875,0.549,3.976,1.65c1.102,1.1,1.649,2.424,1.649,3.975C544.594,484.029,544.076,485.543,543.037,486.83z
			 M245.531,498.229c1.486,0,2.781-0.424,3.881-1.273c1.163-0.9,1.744-2.037,1.744-3.412v-11.25c0-1.375-0.581-2.514-1.744-3.412
			c-1.1-0.852-2.395-1.275-3.881-1.275v-0.938h15l4.687,9.373l3.746-9.373h12.193h3.75h30.938v0.938h-0.938
			c-1.375,0-2.663,0.525-3.862,1.574c-1.15,1.014-1.725,2.051-1.725,3.113v10.313c0,1.611-0.557,3.094-1.67,4.441
			c-1.162,1.414-2.493,2.119-3.993,2.119h-10.313c-1.524,0-2.844-0.555-3.956-1.668c-1.113-1.113-1.668-2.432-1.668-3.957v-9.375
			c0-1.625-0.52-3.1-1.557-4.424c-0.803-1.02-1.727-1.666-2.766-1.957c-0.869,0.195-1.666,0.547-2.373,1.094
			c-1.162,0.9-1.743,2.037-1.743,3.412v11.25c0,1.375,0.581,2.514,1.743,3.412c1.101,0.852,2.395,1.275,3.882,1.275v0.938h-20.625
			v-0.938c1.274,0,2.375-0.455,3.3-1.369c0.925-0.912,1.389-2.02,1.389-3.318v-11.25l-6.563,16.875h-2.813l-6.563-15v9.375
			c0,1.301,0.455,2.406,1.369,3.318c0.912,0.914,2.019,1.369,3.318,1.369v0.938h-12.188v-0.938H245.531z"/>
		<path fill="#FFFFFF" stroke="#000000" stroke-miterlimit="10" d="M529.068,478.523c-0.175,0-0.313,0-0.412,0v8.455
			c0.088,0.014,0.17,0.02,0.244,0.02c0.073,0,0.155,0,0.243,0c1.063,0,1.996-0.359,2.804-1.078c0.807-0.719,1.271-1.615,1.396-2.689
			c0.015-0.074,0.021-0.152,0.021-0.234c0-0.08,0-0.146,0-0.197c0-1.125-0.433-2.117-1.295-2.979
			C531.207,478.955,530.207,478.523,529.068,478.523z"/>
		<path fill="#FFFFFF" stroke="#000000" stroke-miterlimit="10" d="M506.701,480.08c-0.676-1.025-1.64-1.537-2.89-1.537
			c-1.235,0-2.192,0.512-2.868,1.537c-0.563,0.838-0.943,2.043-1.144,3.619c-0.139,1.061-0.207,2.469-0.207,4.219
			c0,1.838,0.063,3.236,0.188,4.199c0.2,1.588,0.582,2.801,1.145,3.639c0.674,1.023,1.638,1.537,2.888,1.537
			c1.237,0,2.192-0.514,2.868-1.537c0.563-0.838,0.943-2.045,1.146-3.619c0.137-1.063,0.205-2.469,0.205-4.219
			c0-1.838-0.063-3.238-0.188-4.201C507.646,482.131,507.264,480.918,506.701,480.08z"/>
		<path fill="#FFFFFF" stroke="#000000" stroke-miterlimit="10" d="M439.146,486.998c1.062,0,1.995-0.359,2.803-1.078
			c0.807-0.719,1.271-1.615,1.396-2.689c0.015-0.074,0.021-0.152,0.021-0.234c0-0.08,0-0.146,0-0.197
			c0-1.125-0.433-2.117-1.295-2.979c-0.861-0.863-1.861-1.295-3-1.295c-0.175,0-0.313,0-0.412,0v8.455
			c0.088,0.014,0.17,0.02,0.244,0.02C438.975,487,439.057,486.998,439.146,486.998z"/>
		<path fill="#FFFFFF" stroke="#000000" stroke-miterlimit="10" d="M413.344,497.18v-9.262c0.813,0.174,1.469,0.293,1.969,0.355
			s1.095,0.094,1.781,0.094c1.1,0,2-0.014,2.699-0.037c0.701-0.025,1.676-0.162,2.926-0.412v10.242
			c1.1-0.145,2.082-0.539,2.943-1.205c1.164-0.9,1.744-2.037,1.744-3.412v-11.25c0-1.375-0.58-2.514-1.744-3.412
			c-1.101-0.852-2.394-1.275-3.881-1.275v8.438h-1.875c0-2.162-0.482-3.93-1.443-5.307c-1.025-1.461-2.42-2.193-4.182-2.193
			c-1.162,0-2.119,0.506-2.869,1.52c-0.637,0.861-1.112,2.063-1.426,3.602c-0.262,1.299-0.394,2.719-0.394,4.256
			c0,2.262,0.25,4.168,0.75,5.719C410.98,495.623,411.98,496.805,413.344,497.18z"/>
		<path fill="#FFFFFF" stroke="#000000" stroke-miterlimit="10" d="M472.521,479.725c-0.427-0.789-1.089-1.182-1.988-1.182
			c-0.887,0-1.543,0.393-1.969,1.182c-0.375,0.688-0.609,1.652-0.703,2.896c-0.095,1.244-0.142,3.01-0.142,5.297
			c0,2.449,0.031,4.094,0.095,4.932c0.112,1.486,0.356,2.574,0.731,3.262c0.424,0.789,1.086,1.182,1.986,1.182
			c0.889,0,1.545-0.393,1.969-1.182c0.375-0.688,0.619-1.773,0.731-3.262c0.074-1,0.111-2.645,0.111-4.932
			c0-2.451-0.031-4.094-0.094-4.932C473.139,481.498,472.896,480.412,472.521,479.725z"/>
		<path fill="#FFFFFF" stroke="#000000" stroke-miterlimit="10" d="M233.221,310.86v30.17c0,3.489-1.83,6.54-5.48,9.16
			c-3.221,2.27-6.42,3.409-9.61,3.409v2.521h153.39V353.6c-3.479,0-6.449-1.22-8.899-3.67c-2.45-2.439-3.67-5.41-3.67-8.899v-25.15
			l17.6,40.24h7.55l17.601-45.26v30.17c0,3.489-1.24,6.46-3.72,8.899c-2.48,2.45-5.432,3.67-8.852,3.67v2.521h55.32V353.6
			c-3.99,0-7.46-1.14-10.41-3.409c-3.12-2.421-4.68-5.471-4.68-9.16v-30.17c0-3.69,1.56-6.74,4.68-9.16
			c2.95-2.28,6.42-3.42,10.41-3.42v-2.51h-42.76l-10.051,25.14l-12.57-25.14h-40.239v2.51c3.989,0,7.46,1.14,10.41,3.42
			c3.12,2.42,4.68,5.47,4.68,9.16v30.17c0,3.689-1.56,6.739-4.68,9.16c-0.95,0.72-1.94,1.329-2.99,1.829
			c-0.66-0.64-1.399-1.479-2.21-2.51c-2.16-2.74-3.9-5.56-5.21-8.479l-20.11-45.26h-25.149L278.48,336
			c-1.371,3.66-2.681,6.54-3.92,8.65c-1.49,2.569-3.17,4.569-5.031,6.02c-0.229-0.16-0.469-0.32-0.699-0.479
			c-3.63-2.591-5.439-5.641-5.439-9.16v-30.17c0-3.49,1.829-6.54,5.489-9.16c3.21-2.28,6.42-3.42,9.601-3.42v-2.51H218.13v2.51
			c3.22,0,6.44,1.14,9.66,3.42C231.41,304.28,233.221,307.33,233.221,310.86z M293.57,313.38l8.05,17.59h-14.86L293.57,313.38z
			 M283.84,338.36c0.221-0.771,0.561-1.551,1.03-2.36h18.76c0.8,1.38,1.24,2.13,1.31,2.26c0.431,0.94,0.701,1.87,0.801,2.771
			c0.029,0.17,0.05,0.439,0.05,0.8c0,2.62-1.13,4.82-3.39,6.59c-2.271,1.78-4.86,2.67-7.771,2.67c-2.989,0-5.59-0.96-7.8-2.89
			c-2.21-1.931-3.32-4.32-3.32-7.17C283.51,340.03,283.62,339.14,283.84,338.36z"/>
		<path fill="#FFFFFF" stroke="#000000" stroke-miterlimit="10" d="M507.32,295.771v2.51h2.51c2.25,0,4.39,0.81,6.438,2.42
			c1.41,1.1,2.98,2.83,4.73,5.18c2.04,2.74,3.35,4.41,3.92,4.98v10.05c0,5.97-0.27,10.88-0.81,14.74
			c-0.771,5.5-2.142,9.71-4.12,12.619c-2.41,3.561-5.8,5.33-10.16,5.33h-2.51v2.521h40.229V353.6h-2.51c-4,0-7.47-1.14-10.42-3.409
			c-3.11-2.421-4.67-5.471-4.67-9.16v-25.15l30.17,40.24h20.12v-42.75c0-4.16,1.47-7.71,4.43-10.66c1.74-1.74,3.68-2.96,5.84-3.68
			c1.88,0.56,3.602,1.45,5.17,2.67c3.12,2.42,4.682,5.47,4.682,9.16v30.17c0,3.689-1.562,6.739-4.682,9.16
			c-2.948,2.27-6.42,3.409-10.41,3.409v2.521h60.352c8.32,0,15.42-2.95,21.33-8.851c5.898-5.899,8.85-13.01,8.85-21.329
			c0-8.311-2.95-15.421-8.85-21.32c-5.91-5.9-13.01-8.85-21.33-8.85h-88.01v2.51h2.51c4.16,0,7.71,1.479,10.67,4.43
			c2.95,2.95,4.42,6.5,4.42,10.66v12.57l-25.15-30.17H507.32z M642.65,348.12c-1.98,1.979-4.342,2.97-7.092,2.97h-5.028V300.8h5.028
			c2.82,0,5.2,0.99,7.15,2.96c1.94,1.98,2.91,4.351,2.91,7.101v30.17C645.62,343.78,644.63,346.14,642.65,348.12z"/>
		<path fill="#FFFFFF" stroke="#000000" stroke-miterlimit="10" d="M442.454,309.397c-4.022,4.762-6.034,10.275-6.034,16.547
			c0,9.288,4.258,16.78,12.775,22.479c7.677,5.131,16.83,7.696,27.459,7.696c6.771,0,13.159-1.157,19.162-3.47
			c6.369-2.448,11.383-5.835,15.038-10.16c4.022-4.761,6.033-10.277,6.033-16.545c0-9.288-4.258-16.782-12.773-22.482
			c-7.68-5.129-16.832-7.693-27.46-7.693c-6.773,0-13.16,1.155-19.161,3.471C451.121,301.684,446.109,305.071,442.454,309.397z
			 M469.487,311.735c0.252-3.336,0.881-5.928,1.886-7.771c1.141-2.113,2.899-3.169,5.281-3.169c2.415,0,4.19,1.056,5.331,3.169
			c1.005,1.843,1.658,4.761,1.961,8.75c0.167,2.246,0.252,6.655,0.252,13.229c0,6.134-0.101,10.545-0.303,13.227
			c-0.301,3.99-0.954,6.906-1.959,8.75c-1.143,2.112-2.901,3.169-5.282,3.169c-2.414,0-4.191-1.057-5.331-3.169
			c-1.005-1.844-1.659-4.76-1.96-8.75c-0.17-2.246-0.253-6.657-0.253-13.227C469.11,319.807,469.236,315.071,469.487,311.735z"/>
		<path fill="#FFFFFF" stroke="#000000" stroke-miterlimit="10" d="M133.632,295.769v2.515c3.991,0,7.459,1.14,10.411,3.42
			c3.118,2.413,4.678,5.465,4.678,9.153v30.176c0,3.688-1.56,6.737-4.678,9.152c-2.952,2.279-6.42,3.421-10.411,3.421v2.515h60.353
			c8.314,0,15.423-2.951,21.324-8.853c5.901-5.9,8.853-13.009,8.853-21.323c0-8.315-2.951-15.423-8.853-21.325
			c-5.901-5.9-13.01-8.851-21.324-8.851H133.632z M191.066,303.763c1.943,1.98,2.916,4.344,2.916,7.094v30.176
			c0,2.749-0.988,5.112-2.967,7.09c-1.979,1.979-4.342,2.969-7.092,2.969h-5.029v-50.293h5.029
			C186.741,300.797,189.122,301.786,191.066,303.763z"/>
		<path fill="#FFFFFF" stroke="#000000" stroke-miterlimit="10" d="M475.94,362.3v4.16h4.17c6.89,0,12.778,2.45,17.68,7.34
			c4.89,4.891,7.33,10.78,7.33,17.67v20.839l-41.68-50.01h-70.86v4.16h4.17c3.721,0,7.28,1.34,10.67,4
			c2.33,1.84,4.939,4.7,7.83,8.59c3.391,4.561,5.561,7.311,6.51,8.26v16.67c0,9.891-0.45,18.029-1.34,24.422
			c-1.279,9.117-3.55,16.09-6.83,20.93c-2.26,3.32-5.029,5.709-8.32,7.16c-1.34-1.131-2.92-2.84-4.729-5.121
			c-3.58-4.529-6.46-9.209-8.62-14.039l-33.35-75.031h-41.681l-25.01,66.691c-2.279,6.059-4.449,10.84-6.5,14.34
			c-2.73,4.66-5.81,8.219-9.26,10.67c-2.96,2.119-6.26,3.43-9.91,3.93V416.48h-4.17L216.189,454h-4.17v-66.69
			c0-5.779,3.03-10.84,9.09-15.18c5.33-3.77,10.641-5.67,15.92-5.67v-4.16H136.99v4.16c5.34,0,10.67,1.9,16.01,5.67
			c6,4.28,9,9.34,9,15.18v50.021c0,5.781-3.029,10.83-9.09,15.17c-5.33,3.781-10.641,5.67-15.92,5.67v4.16h322.28v-4.16H455.1
			c-6.608,0-12.358-1.889-17.25-5.67c-5.17-4.01-7.76-9.059-7.76-15.17v-41.69l50.021,66.69h33.35v-70.86
			c0-6.89,2.44-12.779,7.33-17.67c4.12-4.12,8.97-6.51,14.52-7.16c0.012,0,0.012,0,0.021,0c6.64,0.55,11.63,2.391,14.97,5.49
			c3.67,3.39,5.5,8.45,5.5,15.18v50.021c0,6.83-1.688,11.891-5.08,15.17c-3.95,3.781-10.59,5.67-19.93,5.67v4.16h129.22v-45.85
			h-4.17L609.99,454h-4.17v-41.689l25.01,20.852v-45.852l-25.01,20.842V370.63h8.34l41.68,33.353h4.17V362.3H475.94z
			 M316.891,391.49l13.34,29.16H305.6L316.891,391.49z M331.52,449.58c-3.75,2.951-8.05,4.42-12.879,4.42
			c-4.951,0-9.25-1.6-12.921-4.799c-3.67-3.191-5.5-7.15-5.5-11.871c0-1.67,0.181-3.139,0.54-4.42c0.36-1.279,0.93-2.59,1.71-3.92
			h31.091c1.34,2.279,2.06,3.529,2.17,3.75c0.72,1.551,1.17,3.08,1.33,4.59c0.06,0.27,0.09,0.721,0.09,1.33
			C337.15,442.99,335.27,446.631,331.52,449.58z"/>
	</g>
</g>
</svg>
