<?xml version="1.0" encoding="utf-8"?>
<!-- Generator: Adobe Illustrator 16.0.0, SVG Export Plug-In . SVG Version: 6.00 Build 0)  -->
<!DOCTYPE svg PUBLIC "-//W3C//DTD SVG 1.1//EN" "http://www.w3.org/Graphics/SVG/1.1/DTD/svg11.dtd">
<svg version="1.1"
	 id="svg2" xmlns:cc="http://creativecommons.org/ns#" xmlns:dc="http://purl.org/dc/elements/1.1/" xmlns:inkscape="http://www.inkscape.org/namespaces/inkscape" xmlns:rdf="http://www.w3.org/1999/02/22-rdf-syntax-ns#" xmlns:sodipodi="http://sodipodi.sourceforge.net/DTD/sodipodi-0.dtd" xmlns:svg="http://www.w3.org/2000/svg"
	 xmlns="http://www.w3.org/2000/svg" xmlns:xlink="http://www.w3.org/1999/xlink" x="0px" y="0px" width="100px" height="100px"
	 viewBox="0 0 100 100" enable-background="new 0 0 100 100" xml:space="preserve">
<g id="layer3" transform="translate(0,-99.999988)">
	<path id="rect4208" fill="#4C4C4C" d="M20,100c-11.08,0-20,8.92-20,20v60c0,11.08,8.92,20,20,20h60c11.08,0,20-8.92,20-20v-60
		c0-11.08-8.92-20-20-20H20z M48.637,114.227c12.252,0,23,6.563,28.947,16.346l7.023-4.266l0.371,23.529l-20.758-11.148l7.457-4.527
		c-4.709-7.791-13.24-12.992-23.041-12.992c-11.452,0-21.188,7.025-25.094,17.066c-0.087,0.268-0.146,0.535-0.283,0.848
		c-0.963,2.14-3.17,3.237-4.93,2.449c-1.153-0.519-1.874-1.755-1.883-3.232c0.016-0.705,0.278-1.543,0.592-2.371
		C21.942,123.251,34.259,114.227,48.637,114.227z M15.021,150.164l20.758,11.148l-7.457,4.527
		c4.708,7.791,13.241,12.992,23.041,12.992c11.451,0,21.188-7.025,25.094-17.066c0.087-0.268,0.146-0.535,0.283-0.848
		c0.963-2.141,3.17-3.237,4.93-2.449c1.152,0.519,1.873,1.755,1.883,3.232c-0.016,0.705-0.277,1.543-0.592,2.371
		c-4.902,12.676-17.221,21.701-31.598,21.701c-12.252,0-23-6.563-28.947-16.346l-7.023,4.266L15.021,150.164z"/>
</g>
</svg>
