<?xml version="1.0" encoding="utf-8"?>
<!-- Generator: Adobe Illustrator 15.0.0, SVG Export Plug-In . SVG Version: 6.00 Build 0)  -->
<!DOCTYPE svg PUBLIC "-//W3C//DTD SVG 1.1//EN" "http://www.w3.org/Graphics/SVG/1.1/DTD/svg11.dtd">
<svg version="1.1" id="Layer_1" xmlns="http://www.w3.org/2000/svg" xmlns:xlink="http://www.w3.org/1999/xlink" x="0px" y="0px"
	 width="30px" height="30px" viewBox="0 0 30 30" enable-background="new 0 0 30 30" xml:space="preserve">
<circle fill="#ED1C24" cx="14.911" cy="15.166" r="14.884"/>
<g>
	<path fill="#FFFFFF" d="M25.879,12.963c-0.053-0.041,0.039-0.121-0.319-0.374c0,0-1.171-0.584-2.342-0.798
		c0,0-1.176-0.152-1.927-1.057c0,0-0.276-0.707-0.269-1.284c0,0,0.106-0.187-0.466-0.745c0,0-1.637-1.305-2.661-1.649
		c0,0-0.412-0.094-1.211-0.187c0,0-1.756-0.033-3.539,0.16c0,0-0.945,0.159-1.464,0.665c0,0-1.516,1.184-1.809,1.358
		c0,0-1.783,1.09-2.022,1.423c0,0-0.706,0.586-0.945,0.866c0,0-0.345,0.464-1.25,0.851c0,0-0.838,0.279-0.931,0.372
		c0,0-0.573,0.613-0.772,1.171c0,0-0.133,0.452,0.133,0.984c0,0,1.33,2.448,1.836,3.127c0,0,2.452,3.37,2.532,3.503
		c0.081,0.133,0.26,0.363,0.399,0.621c0,0,0.461,0.467,0.727,0.692c0,0,0.632,0.692,0.665,1.024c0,0-0.2,0.399,0.014,0.572
		c0,0,0.665,0.612,1.063,0.691c0,0,0.479,0.12,0.732,0c0,0,0.16-0.53,0.24-0.663c0,0,0.336-0.521,0.257-0.733l-0.206-0.778
		c0,0,0,0,0.229-0.239l0.641-0.699c0,0,0.095-0.309,0.256-0.309c0.16,0,0.508-0.398,0.455-0.61c0,0,0.053-0.265,0.293-0.345
		c0,0,0.134-0.081,0.723-0.902c0,0,0.267-0.689,0.91-0.954c0,0,0.936-0.293,1.39-0.639c0,0,0.366-0.193,0.795-0.176
		c0,0,0.65-0.12,1.14,0.137c0,0,0.567,0.126,1.871-0.291c0,0,1.152-0.271,1.429-0.279c0,0,0.743-0.235,1.029-0.421
		c0,0,0.638-0.337,1.063-1.066c0.209-0.355,0.503-0.646,0.744-1.064c0,0,0.259-0.759,0.365-1.037
		C25.68,13.881,25.933,13.003,25.879,12.963z M5.794,12.956l-0.133,0.241c0,0-0.224,0.071-0.135-0.16l0.089-0.23
		c0,0,0.06-0.258,0.249-0.178C5.863,12.63,6.008,12.743,5.794,12.956z M17.557,7.57c0,0-0.007,0.003,0.066-0.103
		c0,0,0.286,0.04,0.126,0.252c0,0-0.087,0.113-0.192-0.033C17.557,7.687,17.443,7.63,17.557,7.57z M17.438,10.945
		c0.142-0.373,0.231-0.763,0.231-0.763c0.089-0.399-0.083-0.666-0.083-0.666c-0.215-0.505,0.003-0.452,0.003-0.452
		c-0.026,0.239,0.159,0.347,0.159,0.347c0.16-0.054,0.293,0.026,0.293,0.026c0.267,0.116,0.283-0.035,0.283-0.035
		c0.01-0.24,0.018-0.426,0.018-0.426c0.134-0.595,0.089-1.003,0.089-1.003c0-0.15,0.205-0.106,0.205-0.106
		c0.318,0.098,0.709,0.479,0.709,0.479c0.115,0.125,0.178,0.549,0.178,0.549c0.089,0.586,0.434,0.869,0.434,0.869
		c0.258,0.178,0.498,0.044,0.498,0.044c0.213,0.089,0.194,0.293,0.194,0.293c-0.088,0.195-0.328,0.267-0.328,0.267
		c-0.258,0.07-0.495,0.515-0.495,0.515c-0.276,0.408-0.063,0.594-0.063,0.594c0.098,0.497-0.124,0.515-0.124,0.515
		c-0.239,0.08-0.506-0.24-0.506-0.24c-0.178-0.115-0.896-0.16-0.896-0.16c-0.451,0.08-0.283,0.4-0.283,0.4
		c0.106,0.585-0.363,0.452-0.363,0.452c-0.213-0.026-0.213-0.531-0.213-0.531C17.403,11.06,17.438,10.945,17.438,10.945z
		 M10.232,20.733c-0.212-0.214-0.093-0.28-0.093-0.28l0.106-0.159c0.067-0.24-0.172-0.373-0.172-0.373
		c-0.24-0.093-0.399-0.398-0.399-0.398c-0.293-0.254,0.053-0.359,0.053-0.359c0.253,0.053,0.279-0.106,0.279-0.106
		c0.014-0.159-0.558-0.347-0.558-0.347c-0.28-0.079-0.798-0.479-0.798-0.479c-0.479-0.386-0.799-0.984-0.799-0.984
		c-0.16-0.293,0.066-0.56,0.066-0.56l0.412-0.412c0.121-0.146-0.053-0.3-0.053-0.3c-0.066-0.114-0.413-0.232-0.413-0.232
		c-0.092,0-0.412-0.359-0.412-0.359c-0.266-0.066-0.706-0.838-0.706-0.838c0.014-0.333-0.318-0.625-0.318-0.625
		c-0.187-0.825,0.2-1.61,0.2-1.61c0.119-0.292,0.904-0.798,0.904-0.798l1.468-1.203l3.335-2.449
		c0.266-0.219,0.698-0.393,0.698-0.393c0.045-0.027,0.5-0.093,0.5-0.093C13.705,7.4,14.13,7.268,14.13,7.268
		c0.226-0.066,0.798-0.026,0.798-0.026c0.134,0.04,0.731-0.027,0.731-0.027c0.133-0.08,0.426,0,0.426,0
		c0.239-0.013,0.093,0.253,0.093,0.253c-0.079,0.105-0.226,0.147-0.226,0.147c-0.24,0.054-0.333,0.147-0.333,0.147
		c-0.292,0.228-0.331,0.344-0.331,0.344c-0.055,0.199-0.188,0.16-0.188,0.16c-0.052,0.052-0.345,0-0.345,0
		c-0.226,0.013-0.505,0.394-0.505,0.394C14.09,8.899,14.077,9,14.077,9h-0.373c-0.094,0-0.226-0.028-0.226-0.028l-0.106,0.069
		c-0.173,0.286-0.293,0.269-0.293,0.269c-0.146,0-0.266-0.21-0.266-0.21C12.613,8.874,12.48,9.01,12.48,9.01l-1.17,1.154
		c-0.146,0.23-0.106,0.406-0.106,0.406c-0.015,0.318,0.17,0.478,0.17,0.478c0.091,0.213,0,0.465,0,0.465
		c-0.083,0.053-0.091,0.255-0.091,0.255c0,0.174-0.079,0.17-0.079,0.17c0,0.253-0.019,0.634-0.019,0.634
		c0.027,0.212,0.245,0.285,0.245,0.285c0.172,0.147,0.638,0.466,0.638,0.466c0.213,0.279,0.081,0.573,0.081,0.573
		c-0.093,0.052-0.081,0.146-0.081,0.146c-0.013,0.239,0.2,0.385,0.2,0.385c0.267,0.093,0.427,0.359,0.427,0.359
		c0.132,0.094,0.118,0.412,0.118,0.412c0.213,0.306,0,0.493,0,0.493c-0.026,0.146-0.239,0.371-0.239,0.371
		c-0.04,0.16-0.173,0.321-0.173,0.321c-0.046,0.067-0.12,0.291-0.12,0.291c0,0.107-0.186,0.161-0.186,0.161
		c-0.12,0-0.485,0.053-0.485,0.053c-0.1,0-0.154,0.227-0.154,0.227c-0.014,0.239-0.143,0.159-0.143,0.159
		c-0.182,0-0.337,0.12-0.337,0.12c-0.026,0.105-0.101,0.093-0.101,0.093c-0.221-0.013-0.191-0.16-0.191-0.16
		c-0.053-0.212-0.173-0.386-0.173-0.386c-0.066-0.08-0.172-0.306-0.172-0.306c-0.027-0.173,0.31-0.094,0.31-0.094
		c0.188,0.133,0.352,0.08,0.352,0.08v-0.319c0-0.159-0.489-0.093-0.489-0.093l0.441,0.119C10.752,16.355,11,16.422,11,16.422
		c0,0.239,0,0.239,0,0.239c0,0.227-0.277,0.492-0.277,0.492c0.079,0.12-0.421,0.279-0.421,0.279
		c-0.213,0.054-0.215,0.366-0.215,0.366c0.121,0.063,0.039,0.073,0.039,0.073c0.095,0.066,0.619,0.373,0.619,0.373
		c0.278,0.098,0.586-0.027,0.586-0.027l0.173-0.053c0.133-0.134,0.222,0,0.222,0c-0.027,0.213,0.104,0.28,0.104,0.28
		c0.186,0.119-0.003,0.413-0.003,0.413c-0.026,0.253-0.083,0.28-0.083,0.28c-0.053,0.226-0.233,0.473-0.233,0.473l-0.22,0.453
		c-0.049,0.386-0.387,0.809-0.387,0.809c-0.099,0.14,0.02,0.619,0.02,0.619C11.204,21.76,10.99,22,10.99,22h-0.133
		c-0.186,0-0.213-0.514-0.213-0.514C10.604,21.434,10.232,20.733,10.232,20.733z M12.139,24.151l-0.103,0.153l-0.143-0.02
		c-0.187,0,0-0.146,0-0.146l0.142-0.157c0.089-0.071,0.119-0.003,0.119-0.003C12.261,23.996,12.139,24.151,12.139,24.151z
		 M12.348,23.406c-0.027,0.116-0.16,0-0.16,0l-0.16-0.105l-0.213-0.187c-0.06-0.072-0.142-0.035-0.142-0.035
		c-0.081,0.053-0.715,0.739-0.715,0.739l-0.04,0.263c0.018,0.293-0.115,0.239-0.115,0.239l-0.313-0.201
		c-0.177-0.104-0.016-0.277-0.016-0.277l0.337-0.436c0.142-0.212,0.712-0.768,0.712-0.768c0.186-0.15,0.369,0.015,0.369,0.015
		l0.329,0.381l0.043,0.169C12.4,23.266,12.348,23.406,12.348,23.406z M15.115,18.484c-0.116,0.114-0.329,0.106-0.329,0.106
		c-0.115,0-0.408,0.346-0.408,0.346c-0.133,0.063-0.373,0.426-0.373,0.426c-0.178,0.221-0.745,0.576-0.745,0.576
		c-0.169,0.055-0.346,0.284-0.346,0.284c-0.151,0.24-0.905,0.959-0.905,0.959c-0.091,0.087-0.293,0.123-0.293,0.123
		c-0.186,0.151-0.319,0.098-0.319,0.098c-0.16,0-0.044-0.169-0.044-0.169c0.044-0.071,0.08-0.266,0.08-0.266
		c0.115-0.257,0.542-0.568,0.542-0.568c0.106-0.124,0.719-0.78,0.719-0.78c0.105-0.097,0.344-0.266,0.344-0.266
		c0.125-0.15,0.382-0.178,0.382-0.178c0.32,0.09,0.417-0.143,0.417-0.143c0.15-0.168,0.239-0.779,0.239-0.779
		c0.009-0.302,0.16-0.337,0.16-0.337c0.133-0.019,0.55-0.019,0.55-0.019c0.062-0.142,0.354-0.089,0.354-0.089l0.135,0.125
		C15.488,18.325,15.115,18.484,15.115,18.484z M17.065,14.022c0,0-0.162,0.754-0.174,0.923c0,0-0.189,0.798-0.695,0.865
		l-0.266,0.164c0,0-0.222,0.037-0.417-0.238l-0.727-0.542c0,0-0.106-0.133,0-0.293c0,0,0.089-0.354,0.461-0.585
		c0,0,0.311-0.227,0.133-0.655c0,0-0.24-0.445-0.258-0.524c0,0-0.044-0.054-0.221-0.036c0,0-0.16-0.008,0,0.239
		c0,0,0.105,0.234-0.089,0.321l-0.373,0.362l-0.319,0.32c0,0-0.16,0.205-0.381,0.009l-1.002-0.842c0,0-0.142-0.204,0-0.284
		c0,0,0.292-0.151,0.212-0.329c0,0-0.195-0.328-0.47-0.438c0,0-0.559-0.173-0.585-0.183c0,0-0.311-0.008-0.283-0.186
		c0,0,0.008-0.274,0.079-0.329c0,0,0.133-0.345,0.062-0.488c0,0-0.052-0.39,0.063-0.549c0,0,0.044-0.268,0.017-0.391
		c0,0-0.036-0.142,0.081-0.231l0.283-0.301c0,0,0.107-0.267,0.337,0.017c0,0,0.213,0.09,0.329-0.053c0,0,0.079-0.221,0.195-0.15
		c0,0,0.009-0.019,0.169,0.355c0,0,0.105,0.195,0.417,0.23c0,0,0.417,0.08,0.435-0.16c0,0-0.036-0.292-0.15-0.399
		c0,0-0.116-0.213,0-0.391c0,0,0.465-0.328,0.616-0.389L15,8.824v-0.08c0,0,0.088-0.063,0.293,0.044c0,0,0.097,0.027-0.15,0.302
		c0,0-0.24,0.311-0.32,0.435c0,0-0.147,0.178-0.253,0.248c0,0-0.193,0.267-0.127,0.338c0,0,0.068,0.177,0.308,0.106
		c0,0,0.058,0.044,0.181-0.204c0,0,0.346-0.381,0.523-0.408c0,0,0.219-0.08,0.335-0.186c0,0,0.229-0.231,0.478-0.222
		c0,0,0.391,0.008,0.523-0.275c0,0,0.223-0.318,0.07-0.426c0,0,0.018-0.115-0.149-0.053l-0.23,0.019c0,0-0.169,0.159-0.24,0.168
		c0,0-0.257,0.019-0.416-0.07c0,0-0.152-0.133-0.267-0.133c0,0-0.275-0.08-0.106-0.195c0,0,0.08-0.141,0.249-0.186
		c0,0,0.31-0.21,0.434-0.282c0,0,0.194-0.169,0.319-0.147c0,0,0.187-0.128,0.382,0c0,0,0.323,0.141,0.321,0.36
		c0,0,0.149,0.372,0.062,1.104c-0.009,0.072-0.022,0.149-0.036,0.229c0,0-0.035,0.358-0.132,0.535c0,0-0.276,0.311-0.1,1.305
		c0,0,0.098,0.585,0.187,0.94C17.138,12.089,17.233,13.392,17.065,14.022z M24.401,15h-0.532l-0.625-0.032
		c-0.077,0.032-0.166-0.196-0.166-0.196c-0.039-0.093-0.026-0.275-0.026-0.275c-0.093-0.22-0.283-0.023-0.283-0.023l-0.492,0.474
		c-0.049,0.07-0.113,0.361-0.113,0.361c-0.004,0.297-0.216,0.389-0.216,0.389c-0.303,0.232-0.552,0.035-0.552,0.035
		c-0.187-0.027-0.24-0.255-0.24-0.255c-0.08-0.146-0.239-0.185-0.239-0.185c-0.267-0.08-0.28-0.16-0.28-0.16
		c-0.133-0.014-0.079-0.299-0.079-0.299c-0.137-0.06-0.35-0.02-0.35-0.02c-0.093-0.004-0.068,0.179-0.068,0.179
		c0.042,0.262-0.008,0.249-0.008,0.249c-0.174,0.023-0.186-0.109-0.186-0.109c-0.07-0.09-0.148-0.164-0.148-0.164
		c-0.151-0.079-0.671-0.013-0.671-0.013c-0.115,0.033-0.296,0.176-0.296,0.176c0.027,0.093-0.123,0.146-0.123,0.146l-0.106-0.039
		c-0.066-0.028-0.343,0.32-0.343,0.32C18.165,15.679,18.016,16,18.016,16h-0.2c-0.279,0-0.499-0.116-0.499-0.116
		c-0.253-0.052-0.081-0.552-0.081-0.552c0.068-0.091-0.006-0.09,0.164-1.286c0.077-0.409,0.479-0.802,0.479-0.802
		c0.023-0.22,0.243-0.639,0.243-0.639c0.106-0.213,0.103-0.164,0.103-0.164l0.097,0.034c0.234,0.362-0.004,0.72-0.004,0.72
		c-0.047,0.12-0.158,0.215-0.158,0.215c-0.121,0.189,0.03,0.25,0.03,0.25c0.043,0.006,0.136,0.077,0.14,0.104
		c0.009,0.127-0.004,0.333,0.006,0.394c-0.058,0.002-0.094,0.009-0.094,0.009c-0.018,0.142-0.013,0.36-0.013,0.36
		c0.053,0.176,0.39,0.02,0.39,0.02c0.071-0.196,0.337-0.196,0.337-0.196c0.124-0.036,0.568-0.408,0.674-0.479
		c0.107-0.072,0.568-0.514,0.568-0.514c0.195-0.213,0.55-0.426,0.55-0.426c0.195-0.159,0.816-0.514,0.816-0.514
		c0.142-0.088,0.071-0.23,0.071-0.23c-0.178-0.194-0.106-0.319-0.106-0.319c-0.178-0.284,0-0.355,0-0.355
		c0.106,0.035,0.655,0.355,0.655,0.355c0.338,0.23,1.26,0.301,1.26,0.301c0.214,0.071,0.532,0.213,0.532,0.213
		c0.178,0.035,0.267,0.124,0.267,0.124c0.213,0.16-0.071,0.249-0.071,0.249c-0.124,0.142-0.053,0.372-0.053,0.372
		c0.195,0.036-0.036,0.212-0.036,0.212c-0.07,0.089,0,0.355,0,0.355c0.462,0.266,0.107,0.425,0.107,0.425
		c-0.125,0.16,0,0.302,0,0.302c0.018,0.105,0.212,0.324,0.212,0.324C24.668,14.924,24.401,15,24.401,15z"/>
	<path fill="#FFFFFF" d="M8.951,14.352c0,0-0.107-0.585-0.001-0.799c0,0,0.154-0.567-0.047-0.834c0,0-0.273-0.425-0.273-0.514
		s-0.053-0.213,0.089-0.248c0,0,0.069-0.427-0.099-0.48c0,0-0.221-0.071-0.487,0.195c0,0-0.39,0.266-0.444,0.444
		c-0.053,0.178-0.124,0.231,0,0.425c0,0,0.093,0.283-0.068,0.283l-0.25,0.179c0,0-0.372,0.283-0.372,0.408v0.337
		c0,0,0.204-0.018,0.417-0.32c0,0,0.075-0.159,0.146-0.07c0,0,0.082,0.178-0.025,0.283c0,0-0.108,0.284,0.068,0.532
		c0,0,0.176,0.267,0.406,0.479c0,0,0.266,0.088,0.779,0.763c0,0,0.372,0.295,0.461,0.521c0,0,0.054,0.261,0.205,0.27
		c0,0,0.173-0.094,0.155-0.359c0,0-0.021-0.321-0.252-0.553C9.359,15.293,8.951,14.565,8.951,14.352z"/>
</g>
</svg>
