<?xml version="1.0" encoding="utf-8"?>
<!-- Generator: Adobe Illustrator 15.0.0, SVG Export Plug-In . SVG Version: 6.00 Build 0)  -->
<!DOCTYPE svg PUBLIC "-//W3C//DTD SVG 1.1//EN" "http://www.w3.org/Graphics/SVG/1.1/DTD/svg11.dtd">
<svg version="1.1" id="Layer_1" xmlns="http://www.w3.org/2000/svg" xmlns:xlink="http://www.w3.org/1999/xlink" x="0px" y="0px"
	 width="1000px" height="1000px" viewBox="0 0 1000 1000" enable-background="new 0 0 1000 1000" xml:space="preserve">
<circle fill="#ED1C24" cx="502.247" cy="502.747" r="498.247"/>
<g>
	<path fill="#FFFFFF" d="M869.401,428.961c-1.781-1.336,1.336-4.008-10.689-12.471c0,0-39.194-19.597-78.39-26.724
		c0,0-39.341-5.09-64.505-35.377c0,0-9.208-23.637-8.985-43.012c0,0,3.563-6.236-15.588-24.942c0,0-54.784-43.648-89.079-55.229
		c0,0-13.808-3.118-40.531-6.236c0,0-58.792-1.119-118.475,5.345c0,0-31.623,5.345-48.994,22.27c0,0-50.775,39.64-60.574,45.43
		c0,0-59.683,36.522-67.7,47.657c0,0-23.606,19.597-31.623,28.951c0,0-11.581,15.588-41.867,28.505c0,0-28.06,9.354-31.178,12.471
		c0,0-19.152,20.488-25.833,39.195c0,0-4.454,15.144,4.454,32.959c0,0,44.54,81.953,61.464,104.668
		c0,0,82.103,112.831,84.775,117.285c2.672,4.453,8.703,12.157,13.362,20.787c0,0,15.439,15.589,24.347,23.16
		c0,0,21.156,23.161,22.27,34.296c0,0-6.681,13.361,0.445,19.151c0,0,22.27,20.488,35.632,23.161c0,0,16.034,4.008,24.497,0
		c0,0,5.373-17.764,8.059-22.204c0,0,11.253-17.443,8.567-24.549l-6.869-26.073c0,0,0,0,7.655-7.992l21.487-23.404
		c0,0,3.184-10.342,8.556-10.342c5.373,0,17.012-13.323,15.22-20.429c0,0,1.792-8.88,9.851-11.546c0,0,4.478-2.661,24.177-30.192
		c0,0,8.953-23.091,30.443-31.971c0,0,31.337-9.771,46.558-21.316c0,0,12.241-6.511,26.563-5.919c0,0,21.762-4.012,38.172,4.575
		c0,0,18.998,4.214,62.647-9.742c0,0,38.568-9.037,47.817-9.336c0,0,24.883-7.902,34.435-14.121c0,0,21.375-11.28,35.628-35.631
		c6.979-11.925,16.803-21.647,24.903-35.656c0,0,8.65-25.367,12.214-34.72C862.721,459.693,871.184,430.297,869.401,428.961z
		 M197.079,428.738l-4.454,8.059c0,0-7.499,2.405-4.53-5.313l2.972-7.718c0,0,2.004-8.612,8.316-5.939
		C199.382,417.826,204.205,421.612,197.079,428.738z M590.808,248.465c0,0-0.223,0.111,2.227-3.452c0,0,9.576,1.336,4.231,8.462
		c0,0-2.896,3.786-6.458-1.114C590.808,252.362,587.021,250.469,590.808,248.465z M586.875,361.411
		c4.746-12.471,7.718-25.537,7.718-25.537c2.972-13.362-2.759-22.27-2.759-22.27c-7.214-16.925,0.087-15.144,0.087-15.144
		c-0.891,8.017,5.345,11.58,5.345,11.58c5.345-1.781,9.799,0.891,9.799,0.891c8.949,3.894,9.503-1.187,9.503-1.187
		c0.296-8.018,0.595-14.253,0.595-14.253c4.454-19.893,2.965-33.554,2.965-33.554c0-5.045,6.834-3.563,6.834-3.563
		c10.689,3.264,23.752,16.034,23.752,16.034c3.862,4.158,5.937,18.411,5.937,18.411c2.972,19.597,14.552,29.1,14.552,29.1
		c8.608,5.94,16.629,1.482,16.629,1.482c7.127,2.968,6.531,9.799,6.531,9.799c-2.972,6.531-10.988,8.908-10.988,8.908
		c-8.609,2.373-16.626,17.225-16.626,17.225c-9.207,13.661-2.081,19.893-2.081,19.893c3.271,16.625-4.154,17.221-4.154,17.221
		c-8.018,2.672-16.925-8.017-16.925-8.017c-5.947-3.838-29.988-5.345-29.988-5.345c-15.144,2.676-9.503,13.362-9.503,13.362
		c3.563,19.597-12.175,15.144-12.175,15.144c-7.126-0.891-7.126-17.816-7.126-17.816
		C585.686,365.27,586.875,361.411,586.875,361.411z M345.618,689.071c-7.126-7.126-3.118-9.354-3.118-9.354l3.563-5.345
		c2.227-8.017-5.79-12.471-5.79-12.471c-8.017-3.118-13.362-13.362-13.362-13.362c-9.799-8.462,1.781-12.025,1.781-12.025
		c8.463,1.782,9.354-3.563,9.354-3.563c0.445-5.344-18.707-11.58-18.707-11.58c-9.354-2.672-26.724-16.034-26.724-16.034
		c-16.034-12.916-26.724-32.959-26.724-32.959c-5.345-9.799,2.227-18.706,2.227-18.706l13.807-13.808
		c4.008-4.899-1.782-10.046-1.782-10.046c-2.227-3.811-13.807-7.77-13.807-7.77c-3.118,0-13.807-12.026-13.807-12.026
		c-8.908-2.227-23.606-28.06-23.606-28.06c0.445-11.135-10.689-20.934-10.689-20.934c-6.236-27.614,6.681-53.893,6.681-53.893
		c4.009-9.799,30.287-26.72,30.287-26.72l49.146-40.252l111.641-81.991c8.908-7.332,23.355-13.16,23.355-13.16
		c1.528-0.891,16.73-3.118,16.73-3.118c5.791,0.891,20.043-3.563,20.043-3.563c7.572-2.227,26.724-0.891,26.724-0.891
		c4.454,1.336,24.497-0.907,24.497-0.907c4.454-2.688,14.252,0.016,14.252,0.016c8.018-0.446,3.118,8.462,3.118,8.462
		c-2.673,3.563-7.572,4.927-7.572,4.927c-8.017,1.813-11.135,4.931-11.135,4.931c-9.798,7.631-11.135,11.521-11.135,11.521
		c-1.781,6.681-6.235,5.345-6.235,5.345c-1.781,1.781-11.58,0-11.58,0c-7.572,0.445-16.925,7.022-16.925,7.022
		c-5.345,8.017-5.791,5.241-5.791,5.241h-12.471c-3.118,0-7.572,5.226-7.572,5.226l-3.563,5.396
		c-5.79,9.576-9.798,10.493-9.798,10.493c-4.899,0-8.908-6.223-8.908-6.223c-6.681-7.572-11.135-2.666-11.135-2.666l-39.195,38.867
		c-4.899,7.687-3.563,13.694-3.563,13.694c-0.445,10.689,5.713,16.035,5.713,16.035c3.042,7.126,0,15.593,0,15.593
		c-2.749,1.785-3.041,8.515-3.041,8.515c0,5.846-2.672,5.734-2.672,5.734c0,8.462-0.605,21.191-0.605,21.191
		c0.891,7.116,8.177,9.542,8.177,9.542c5.79,4.899,21.379,15.589,21.379,15.589c7.126,9.353,2.672,19.152,2.672,19.152
		c-3.118,1.781-2.672,4.899-2.672,4.899c-0.445,8.017,6.681,12.917,6.681,12.917c8.908,3.118,14.253,12.025,14.253,12.025
		c4.454,3.118,4.008,13.807,4.008,13.807c7.126,10.244,0,16.479,0,16.479c-0.891,4.899-8.017,12.472-8.017,12.472
		c-1.336,5.345-5.79,10.689-5.79,10.689c-1.531,2.293-4.008,9.799-4.008,9.799c0,3.563-6.236,5.344-6.236,5.344
		c-4.008,0-16.236,1.782-16.236,1.782c-3.32,0-5.143,7.571-5.143,7.571c-0.445,8.018-4.76,5.345-4.76,5.345
		c-6.1,0-11.274,4.009-11.274,4.009c-0.891,3.563-3.403,3.118-3.403,3.118c-7.408-0.446-6.396-5.345-6.396-5.345
		c-1.782-7.127-5.791-12.917-5.791-12.917c-2.227-2.672-5.79-10.244-5.79-10.244c-0.891-5.79,6.742-3.117,6.742-3.117
		c6.235,4.454,8.078,2.672,8.078,2.672v-10.689c0-5.345-12.716-3.118-12.716-3.118l-1.571,4.009
		c-6.681,0.891-14.713,3.118-14.713,3.118c0,8.017,0,8.017,0,8.017c7,7.572,8.893,16.479,8.893,16.479
		c2.673,4.009-5.049,9.354-5.049,9.354c-7.126,1.782-2.626,12.29-2.626,12.29c4.009,2.046,3.587,2.408,3.587,2.408
		c3.118,2.227,21.836,12.471,21.836,12.471c9.28,3.292,20.181-0.887,20.181-0.887l6.092-1.778c4.454-4.454,7.563,0.004,7.563,0.004
		c-0.891,7.126,3.54,9.363,3.54,9.363c6.235,4.009-0.049,13.828-0.049,13.828c-0.891,8.463-2.769,9.395-2.769,9.395
		c-1.782,7.572-7.767,15.809-7.767,15.809l-7.377,15.175c-1.646,12.916-12.944,27.058-12.944,27.058
		c-3.34,4.677,0.668,12.519,0.668,12.519c9.353,8.908,2.227,8.733,2.227,8.733h-4.454c-6.236-3-7.126-8.956-7.126-8.956
		C358.089,704.263,345.618,689.071,345.618,689.071z M409.458,803.51l-4.063,5.136L400,807.992c-4,0,0-4.917,0-4.917l5.357-5.258
		c2.972-2.373,4.297-0.08,4.297-0.08C413.217,798.332,409.458,803.51,409.458,803.51z M416.436,778.596
		c-0.891,3.859-5.345,0-5.345,0l-5.345-3.563l-7.126-6.235c-2.004-2.449-4.75-1.187-4.75-1.187
		c-2.672,1.781-23.909,24.754-23.909,24.754l-1.329,8.797c0.592,9.799-3.862,8.018-3.862,8.018l-10.439-6.727
		c-5.929-3.479-0.546-9.308-0.546-9.308l11.285-14.549c4.75-7.126,23.863-25.722,23.863-25.722c6.236-5.045,12.36,0.483,12.36,0.483
		l10.989,12.768l1.482,5.641C418.217,773.843,416.436,778.596,416.436,778.596z M509.077,613.8
		c-3.862,3.862-10.985,3.563-10.985,3.563c-3.859,0-13.658,11.58-13.658,11.58c-4.454,2.08-12.471,14.252-12.471,14.252
		c-5.939,7.426-24.942,19.299-24.942,19.299c-5.644,1.781-11.581,9.503-11.581,9.503c-5.049,8.017-30.287,32.068-30.287,32.068
		c-3.041,2.926-9.799,4.158-9.799,4.158c-6.235,5.049-10.689,3.264-10.689,3.264c-5.345,0-1.486-5.641-1.486-5.641
		c1.486-2.377,2.672-8.908,2.672-8.908c3.859-8.611,18.112-19.002,18.112-19.002c3.563-4.154,24.051-26.132,24.051-26.132
		c3.563-3.268,11.58-8.908,11.58-8.908c4.155-5.049,12.771-5.937,12.771-5.937c10.689,2.972,13.953-4.753,13.953-4.753
		c5.046-5.644,8.017-26.129,8.017-26.129c0.296-10.094,5.345-11.284,5.345-11.284c4.454-0.595,18.411-0.592,18.411-0.592
		c2.077-4.749,11.875-2.972,11.875-2.972l4.454,4.158C521.549,608.455,509.077,613.8,509.077,613.8z M574.373,464.439
		c0,0-5.445,25.245-5.821,30.885c0,0-6.319,26.689-23.244,28.933l-8.911,5.512c0,0-7.426,1.19-13.957-8.017l-24.347-18.115
		c0,0-3.563-4.454,0-9.799c0,0,2.968-11.879,15.439-19.597c0,0,10.391-7.586,4.454-21.904c0,0-8.018-14.914-8.608-17.586
		c0,0-1.462-1.778-7.412-1.187c0,0-5.334-0.296,0,8.017c0,0,3.55,7.854-2.982,10.756l-12.471,12.105l-10.689,10.689
		c0,0-5.345,6.834-12.767,0.299l-33.554-28.209c0,0-4.75-6.831,0-9.503c0,0,9.799-5.045,7.126-10.985
		c0,0-6.535-11.006-15.739-14.708c0,0-18.707-5.776-19.597-6.075c0,0-10.39-0.296-9.5-6.236c0,0,0.296-9.207,2.672-10.989
		c0,0,4.454-11.577,2.077-16.33c0,0-1.785-13.066,2.078-18.411c0,0,1.486-8.911,0.595-13.066c0,0-1.187-4.746,2.672-7.718
		l9.503-10.098c0,0,3.56-8.908,11.281,0.595c0,0,7.126,2.968,10.989-1.782c0,0,2.672-7.425,6.531-5.049
		c0,0,0.296-0.591,5.641,11.879c0,0,3.563,6.528,13.957,7.718c0,0,13.954,2.672,14.548-5.345c0,0-1.187-9.795-5.045-13.358
		c0,0-3.862-7.129,0-13.066c0,0,7.478-10.981,12.526-13.063l7.183-1.19v-2.672c0,0,11.079-2.078,17.909,1.486
		c0,0,7.319,0.887-0.993,10.094c0,0-5.991,10.397-8.664,14.552c0,0-3.884,5.937-7.447,8.313c0,0-5.915,8.912-3.708,11.285
		c0,0,2.499,5.939,10.516,3.563c0,0,2.074,1.482,6.233-6.831c0,0,11.578-12.767,17.519-13.658c0,0,7.421-2.672,11.283-6.235
		c0,0,7.717-7.725,16.033-7.425c0,0,13.063,0.299,17.517-9.204c0,0,7.426-10.689,2.376-14.252c0,0,0.592-3.859-5.049-1.782
		l-7.718,0.595c0,0-5.644,5.345-8.017,5.641c0,0-8.612,0.591-13.957-2.377c0,0-5.049-4.454-8.908-4.454c0,0-9.203-2.672-3.563-6.531
		c0,0,2.669-4.75,8.313-6.236c0,0,10.394-7.011,14.552-9.443c0,0,6.531-5.641,10.689-4.931c0,0,6.235-4.273,12.767,0
		c0,0,10.836,4.718,10.763,12.071c0,0,5.011,12.426,2.061,36.964c-0.293,2.429-0.773,5.018-1.239,7.687c0,0-1.138,11.97-4.405,17.91
		c0,0-9.228,10.397-3.292,43.655c0,0,3.25,19.601,6.222,31.48C576.791,399.708,579.979,443.356,574.373,464.439z M819.963,494
		h-17.816l-20.933,0.551c-2.562,1.002-5.567-5.792-5.567-5.792c-1.337-3.118-0.892-8.854-0.892-8.854
		c-3.117-7.349-9.464-0.53-9.464-0.53l-16.48,15.937c-1.648,2.345-3.785,12.144-3.785,12.144c-0.111,9.91-7.238,13.031-7.238,13.031
		c-10.14,7.77-18.483,1.115-18.483,1.115c-6.235-0.892-8.018-8.462-8.018-8.462c-2.672-4.899-8.017-6.235-8.017-6.235
		c-8.908-2.672-9.354-5.344-9.354-5.344c-4.454-0.445-2.672-10.021-2.672-10.021c-4.565-2.004-11.692-0.668-11.692-0.668
		c-3.117-0.111-2.338,6.013-2.338,6.013c1.447,8.796-0.223,8.351-0.223,8.351c-5.79,0.779-6.235-3.674-6.235-3.674
		c-2.339-3.007-4.977-5.457-4.977-5.457c-5.011-2.672-22.415-0.445-22.415-0.445c-3.839,1.134-9.91,5.902-9.91,5.902
		c0.891,3.117-4.12,4.898-4.12,4.898l-3.563-1.336c-2.227-0.891-11.469,3.435-11.469,3.435c-3.118,4.009-8.128,7.442-8.128,7.442
		h-6.682c-9.354,3-16.702,3.47-16.702,3.47c-8.462-1.781-2.749-14.888-2.749-14.888c2.304-2.975-0.188-1.154,5.533-41.191
		c2.561-13.696,16.034-25.956,16.034-25.956c0.779-7.349,8.128-20.939,8.128-20.939c3.563-7.126,3.452-5.236,3.452-5.236
		l3.229,1.224c7.829,12.133-0.112,24.162-0.112,24.162c-1.559,4.009-5.345,7.238-5.345,7.238c-4.008,6.347,1.003,8.455,1.003,8.455
		c1.465,0.17,4.6,2.537,4.677,3.458c0.348,4.235-0.111,11.135,0.223,13.139c-1.894,0.111-3.118,0.334-3.118,0.334
		c-0.592,4.75-0.445,12.026-0.445,12.026c1.781,5.939,13.063,0.671,13.063,0.671c2.377-6.535,11.288-6.531,11.288-6.531
		c4.154-1.187,18.999-13.658,22.562-16.034c3.563-2.376,19.006-17.221,19.006-17.221c6.535-7.126,18.407-14.252,18.407-14.252
		c6.535-5.345,27.322-17.225,27.322-17.225c4.75-2.972,2.373-7.718,2.373-7.718c-5.936-6.531-3.563-10.689-3.563-10.689
		c-5.937-9.5,0-11.879,0-11.879c3.563,1.187,21.971,11.879,21.971,11.879c11.284,7.721,42.166,10.095,42.166,10.095
		c7.126,2.376,17.815,7.126,17.815,7.126c5.94,1.187,8.908,4.158,8.908,4.158c7.126,5.345-2.377,8.313-2.377,8.313
		c-4.158,4.75-1.781,12.471-1.781,12.471c6.531,1.187-1.187,7.126-1.187,7.126c-2.377,2.968,0,11.876,0,11.876
		c15.439,8.908,3.563,14.253,3.563,14.253c-4.157,5.345,0,10.098,0,10.098c0.596,3.563,7.127,9.282,7.127,9.282
		C828.871,493.03,819.963,494,819.963,494z"/>
	<path fill="#FFFFFF" d="M302.749,475.47c0,0-3.581-19.618-0.018-26.744c0,0,5.14-19.01-1.594-27.917c0,0-9.11-14.256-9.11-17.228
		s-1.785-7.13,2.965-8.316c0,0,2.317-14.256-3.295-16.038c0,0-7.398-2.373-16.306,6.535c0,0-13.063,8.904-14.844,14.844
		c-1.782,5.939-4.155,7.718,0,14.252c0,0,3.097,9.503-2.311,9.503l-9.073,5.94c0,0-13.164,9.5-13.164,13.657c0,0-8,11.281,0,11.281
		c0,0,7.521-0.588,14.646-10.686c0,0,2.873-5.345,5.246-2.376c0,0,2.922,5.939-0.641,9.503c0,0-3.588,9.503,2.349,17.815
		c0,0,5.931,8.908,13.648,16.035c0,0,8.902,2.964,26.126,25.534c0,0,12.464,9.868,15.433,17.405c0,0,1.78,8.727,6.829,9.022
		c0,0,5.79-3.118,5.194-12.025c0,0-0.668-10.763-8.386-18.484C316.445,506.981,302.749,482.596,302.749,475.47z"/>
</g>
</svg>
